{
  "build": "h5eee18b_0",
  "build_number": 0,
  "channel": "https://repo.anaconda.com/pkgs/main/linux-64",
  "constrains": [],
  "depends": [
    "libgcc-ng >=11.2.0"
  ],
  "extracted_package_dir": "/home/ac/anaconda3/pkgs/xz-5.4.5-h5eee18b_0",
  "files": [
    "bin/lzcat",
    "bin/lzcmp",
    "bin/lzdiff",
    "bin/lzegrep",
    "bin/lzfgrep",
    "bin/lzgrep",
    "bin/lzless",
    "bin/lzma",
    "bin/lzmadec",
    "bin/lzmainfo",
    "bin/lzmore",
    "bin/unlzma",
    "bin/unxz",
    "bin/xz",
    "bin/xzcat",
    "bin/xzcmp",
    "bin/xzdec",
    "bin/xzdiff",
    "bin/xzegrep",
    "bin/xzfgrep",
    "bin/xzgrep",
    "bin/xzless",
    "bin/xzmore",
    "include/lzma.h",
    "include/lzma/base.h",
    "include/lzma/bcj.h",
    "include/lzma/block.h",
    "include/lzma/check.h",
    "include/lzma/container.h",
    "include/lzma/delta.h",
    "include/lzma/filter.h",
    "include/lzma/hardware.h",
    "include/lzma/index.h",
    "include/lzma/index_hash.h",
    "include/lzma/lzma12.h",
    "include/lzma/stream_flags.h",
    "include/lzma/version.h",
    "include/lzma/vli.h",
    "lib/liblzma.a",
    "lib/liblzma.so",
    "lib/liblzma.so.5",
    "lib/liblzma.so.5.4.5",
    "lib/pkgconfig/liblzma.pc",
    "share/doc/xz/AUTHORS",
    "share/doc/xz/COPYING",
    "share/doc/xz/COPYING.GPLv2",
    "share/doc/xz/NEWS",
    "share/doc/xz/README",
    "share/doc/xz/THANKS",
    "share/doc/xz/TODO",
    "share/doc/xz/api/annotated.html",
    "share/doc/xz/api/base_8h.html",
    "share/doc/xz/api/bc_s.png",
    "share/doc/xz/api/bc_sd.png",
    "share/doc/xz/api/bcj_8h.html",
    "share/doc/xz/api/block_8h.html",
    "share/doc/xz/api/check_8h.html",
    "share/doc/xz/api/classes.html",
    "share/doc/xz/api/closed.png",
    "share/doc/xz/api/container_8h.html",
    "share/doc/xz/api/delta_8h.html",
    "share/doc/xz/api/dir_b17a1d403082bd69a703ed987cf158fb.html",
    "share/doc/xz/api/doc.svg",
    "share/doc/xz/api/docd.svg",
    "share/doc/xz/api/doxygen.css",
    "share/doc/xz/api/doxygen.svg",
    "share/doc/xz/api/files.html",
    "share/doc/xz/api/filter_8h.html",
    "share/doc/xz/api/folderclosed.svg",
    "share/doc/xz/api/folderclosedd.svg",
    "share/doc/xz/api/folderopen.svg",
    "share/doc/xz/api/folderopend.svg",
    "share/doc/xz/api/functions.html",
    "share/doc/xz/api/functions_vars.html",
    "share/doc/xz/api/globals.html",
    "share/doc/xz/api/globals_defs.html",
    "share/doc/xz/api/globals_enum.html",
    "share/doc/xz/api/globals_eval.html",
    "share/doc/xz/api/globals_func.html",
    "share/doc/xz/api/globals_type.html",
    "share/doc/xz/api/hardware_8h.html",
    "share/doc/xz/api/index.html",
    "share/doc/xz/api/index_8h.html",
    "share/doc/xz/api/index__hash_8h.html",
    "share/doc/xz/api/lzma12_8h.html",
    "share/doc/xz/api/lzma_8h.html",
    "share/doc/xz/api/nav_f.png",
    "share/doc/xz/api/nav_fd.png",
    "share/doc/xz/api/nav_g.png",
    "share/doc/xz/api/nav_h.png",
    "share/doc/xz/api/nav_hd.png",
    "share/doc/xz/api/open.png",
    "share/doc/xz/api/splitbar.png",
    "share/doc/xz/api/splitbard.png",
    "share/doc/xz/api/stream__flags_8h.html",
    "share/doc/xz/api/structlzma__allocator.html",
    "share/doc/xz/api/structlzma__block.html",
    "share/doc/xz/api/structlzma__filter.html",
    "share/doc/xz/api/structlzma__index__iter.html",
    "share/doc/xz/api/structlzma__mt.html",
    "share/doc/xz/api/structlzma__options__bcj.html",
    "share/doc/xz/api/structlzma__options__delta.html",
    "share/doc/xz/api/structlzma__options__lzma.html",
    "share/doc/xz/api/structlzma__stream.html",
    "share/doc/xz/api/structlzma__stream__flags.html",
    "share/doc/xz/api/sync_off.png",
    "share/doc/xz/api/sync_on.png",
    "share/doc/xz/api/tab_a.png",
    "share/doc/xz/api/tab_ad.png",
    "share/doc/xz/api/tab_b.png",
    "share/doc/xz/api/tab_bd.png",
    "share/doc/xz/api/tab_h.png",
    "share/doc/xz/api/tab_hd.png",
    "share/doc/xz/api/tab_s.png",
    "share/doc/xz/api/tab_sd.png",
    "share/doc/xz/api/tabs.css",
    "share/doc/xz/api/version_8h.html",
    "share/doc/xz/api/vli_8h.html",
    "share/doc/xz/examples/00_README.txt",
    "share/doc/xz/examples/01_compress_easy.c",
    "share/doc/xz/examples/02_decompress.c",
    "share/doc/xz/examples/03_compress_custom.c",
    "share/doc/xz/examples/04_compress_easy_mt.c",
    "share/doc/xz/examples/Makefile",
    "share/doc/xz/examples_old/xz_pipe_comp.c",
    "share/doc/xz/examples_old/xz_pipe_decomp.c",
    "share/doc/xz/faq.txt",
    "share/doc/xz/history.txt",
    "share/doc/xz/lzma-file-format.txt",
    "share/doc/xz/xz-file-format.txt",
    "share/locale/ca/LC_MESSAGES/xz.mo",
    "share/locale/cs/LC_MESSAGES/xz.mo",
    "share/locale/da/LC_MESSAGES/xz.mo",
    "share/locale/de/LC_MESSAGES/xz.mo",
    "share/locale/eo/LC_MESSAGES/xz.mo",
    "share/locale/es/LC_MESSAGES/xz.mo",
    "share/locale/fi/LC_MESSAGES/xz.mo",
    "share/locale/fr/LC_MESSAGES/xz.mo",
    "share/locale/hr/LC_MESSAGES/xz.mo",
    "share/locale/hu/LC_MESSAGES/xz.mo",
    "share/locale/it/LC_MESSAGES/xz.mo",
    "share/locale/ko/LC_MESSAGES/xz.mo",
    "share/locale/pl/LC_MESSAGES/xz.mo",
    "share/locale/pt/LC_MESSAGES/xz.mo",
    "share/locale/pt_BR/LC_MESSAGES/xz.mo",
    "share/locale/ro/LC_MESSAGES/xz.mo",
    "share/locale/sr/LC_MESSAGES/xz.mo",
    "share/locale/sv/LC_MESSAGES/xz.mo",
    "share/locale/tr/LC_MESSAGES/xz.mo",
    "share/locale/uk/LC_MESSAGES/xz.mo",
    "share/locale/vi/LC_MESSAGES/xz.mo",
    "share/locale/zh_CN/LC_MESSAGES/xz.mo",
    "share/locale/zh_TW/LC_MESSAGES/xz.mo",
    "share/man/de/man1/lzcat.1",
    "share/man/de/man1/lzcmp.1",
    "share/man/de/man1/lzdiff.1",
    "share/man/de/man1/lzegrep.1",
    "share/man/de/man1/lzfgrep.1",
    "share/man/de/man1/lzgrep.1",
    "share/man/de/man1/lzless.1",
    "share/man/de/man1/lzma.1",
    "share/man/de/man1/lzmadec.1",
    "share/man/de/man1/lzmore.1",
    "share/man/de/man1/unlzma.1",
    "share/man/de/man1/unxz.1",
    "share/man/de/man1/xz.1",
    "share/man/de/man1/xzcat.1",
    "share/man/de/man1/xzcmp.1",
    "share/man/de/man1/xzdec.1",
    "share/man/de/man1/xzdiff.1",
    "share/man/de/man1/xzegrep.1",
    "share/man/de/man1/xzfgrep.1",
    "share/man/de/man1/xzgrep.1",
    "share/man/de/man1/xzless.1",
    "share/man/de/man1/xzmore.1",
    "share/man/fr/man1/lzcat.1",
    "share/man/fr/man1/lzcmp.1",
    "share/man/fr/man1/lzdiff.1",
    "share/man/fr/man1/lzless.1",
    "share/man/fr/man1/lzma.1",
    "share/man/fr/man1/lzmadec.1",
    "share/man/fr/man1/lzmore.1",
    "share/man/fr/man1/unlzma.1",
    "share/man/fr/man1/unxz.1",
    "share/man/fr/man1/xz.1",
    "share/man/fr/man1/xzcat.1",
    "share/man/fr/man1/xzcmp.1",
    "share/man/fr/man1/xzdec.1",
    "share/man/fr/man1/xzdiff.1",
    "share/man/fr/man1/xzless.1",
    "share/man/fr/man1/xzmore.1",
    "share/man/ko/man1/lzcat.1",
    "share/man/ko/man1/lzcmp.1",
    "share/man/ko/man1/lzdiff.1",
    "share/man/ko/man1/lzegrep.1",
    "share/man/ko/man1/lzfgrep.1",
    "share/man/ko/man1/lzgrep.1",
    "share/man/ko/man1/lzless.1",
    "share/man/ko/man1/lzma.1",
    "share/man/ko/man1/lzmadec.1",
    "share/man/ko/man1/lzmore.1",
    "share/man/ko/man1/unlzma.1",
    "share/man/ko/man1/unxz.1",
    "share/man/ko/man1/xz.1",
    "share/man/ko/man1/xzcat.1",
    "share/man/ko/man1/xzcmp.1",
    "share/man/ko/man1/xzdec.1",
    "share/man/ko/man1/xzdiff.1",
    "share/man/ko/man1/xzegrep.1",
    "share/man/ko/man1/xzfgrep.1",
    "share/man/ko/man1/xzgrep.1",
    "share/man/ko/man1/xzless.1",
    "share/man/ko/man1/xzmore.1",
    "share/man/man1/lzcat.1",
    "share/man/man1/lzcmp.1",
    "share/man/man1/lzdiff.1",
    "share/man/man1/lzegrep.1",
    "share/man/man1/lzfgrep.1",
    "share/man/man1/lzgrep.1",
    "share/man/man1/lzless.1",
    "share/man/man1/lzma.1",
    "share/man/man1/lzmadec.1",
    "share/man/man1/lzmainfo.1",
    "share/man/man1/lzmore.1",
    "share/man/man1/unlzma.1",
    "share/man/man1/unxz.1",
    "share/man/man1/xz.1",
    "share/man/man1/xzcat.1",
    "share/man/man1/xzcmp.1",
    "share/man/man1/xzdec.1",
    "share/man/man1/xzdiff.1",
    "share/man/man1/xzegrep.1",
    "share/man/man1/xzfgrep.1",
    "share/man/man1/xzgrep.1",
    "share/man/man1/xzless.1",
    "share/man/man1/xzmore.1",
    "share/man/pt_BR/man1/lzcat.1",
    "share/man/pt_BR/man1/lzcmp.1",
    "share/man/pt_BR/man1/lzdiff.1",
    "share/man/pt_BR/man1/lzegrep.1",
    "share/man/pt_BR/man1/lzfgrep.1",
    "share/man/pt_BR/man1/lzgrep.1",
    "share/man/pt_BR/man1/lzless.1",
    "share/man/pt_BR/man1/lzma.1",
    "share/man/pt_BR/man1/lzmadec.1",
    "share/man/pt_BR/man1/lzmore.1",
    "share/man/pt_BR/man1/unlzma.1",
    "share/man/pt_BR/man1/unxz.1",
    "share/man/pt_BR/man1/xz.1",
    "share/man/pt_BR/man1/xzcat.1",
    "share/man/pt_BR/man1/xzcmp.1",
    "share/man/pt_BR/man1/xzdec.1",
    "share/man/pt_BR/man1/xzdiff.1",
    "share/man/pt_BR/man1/xzegrep.1",
    "share/man/pt_BR/man1/xzfgrep.1",
    "share/man/pt_BR/man1/xzgrep.1",
    "share/man/pt_BR/man1/xzless.1",
    "share/man/pt_BR/man1/xzmore.1",
    "share/man/ro/man1/lzcat.1",
    "share/man/ro/man1/lzcmp.1",
    "share/man/ro/man1/lzdiff.1",
    "share/man/ro/man1/lzegrep.1",
    "share/man/ro/man1/lzfgrep.1",
    "share/man/ro/man1/lzgrep.1",
    "share/man/ro/man1/lzless.1",
    "share/man/ro/man1/lzma.1",
    "share/man/ro/man1/lzmadec.1",
    "share/man/ro/man1/lzmore.1",
    "share/man/ro/man1/unlzma.1",
    "share/man/ro/man1/unxz.1",
    "share/man/ro/man1/xz.1",
    "share/man/ro/man1/xzcat.1",
    "share/man/ro/man1/xzcmp.1",
    "share/man/ro/man1/xzdec.1",
    "share/man/ro/man1/xzdiff.1",
    "share/man/ro/man1/xzegrep.1",
    "share/man/ro/man1/xzfgrep.1",
    "share/man/ro/man1/xzgrep.1",
    "share/man/ro/man1/xzless.1",
    "share/man/ro/man1/xzmore.1",
    "share/man/uk/man1/lzcat.1",
    "share/man/uk/man1/lzcmp.1",
    "share/man/uk/man1/lzdiff.1",
    "share/man/uk/man1/lzegrep.1",
    "share/man/uk/man1/lzfgrep.1",
    "share/man/uk/man1/lzgrep.1",
    "share/man/uk/man1/lzless.1",
    "share/man/uk/man1/lzma.1",
    "share/man/uk/man1/lzmadec.1",
    "share/man/uk/man1/lzmore.1",
    "share/man/uk/man1/unlzma.1",
    "share/man/uk/man1/unxz.1",
    "share/man/uk/man1/xz.1",
    "share/man/uk/man1/xzcat.1",
    "share/man/uk/man1/xzcmp.1",
    "share/man/uk/man1/xzdec.1",
    "share/man/uk/man1/xzdiff.1",
    "share/man/uk/man1/xzegrep.1",
    "share/man/uk/man1/xzfgrep.1",
    "share/man/uk/man1/xzgrep.1",
    "share/man/uk/man1/xzless.1",
    "share/man/uk/man1/xzmore.1"
  ],
  "fn": "xz-5.4.5-h5eee18b_0.conda",
  "legacy_bz2_md5": "0dbfe33fe018d8dbd1cfcde4a6aa870d",
  "legacy_bz2_size": 707584,
  "license": "LGPL-2.1-or-later and GPL-2.0-or-later",
  "license_family": "GPL2",
  "link": {
    "source": "/home/ac/anaconda3/pkgs/xz-5.4.5-h5eee18b_0",
    "type": 1
  },
  "md5": "fb0f709ab3eb6ad3538677c327646581",
  "name": "xz",
  "package_tarball_full_path": "/home/ac/anaconda3/pkgs/xz-5.4.5-h5eee18b_0.conda",
  "paths_data": {
    "paths": [
      {
        "_path": "bin/lzcat",
        "path_type": "softlink",
        "sha256": "6e8ffc9f7104aaccf2fa5f5f1c4e5e0c2d8502b2a173badacebcc148b67cecb9",
        "size_in_bytes": 103816
      },
      {
        "_path": "bin/lzcmp",
        "path_type": "softlink",
        "sha256": "551e26acd2c7d3f56ab6f43916cfcaafb96955eda66b656f1ed9a708f52e7667",
        "size_in_bytes": 7422
      },
      {
        "_path": "bin/lzdiff",
        "path_type": "softlink",
        "sha256": "551e26acd2c7d3f56ab6f43916cfcaafb96955eda66b656f1ed9a708f52e7667",
        "size_in_bytes": 7422
      },
      {
        "_path": "bin/lzegrep",
        "path_type": "softlink",
        "sha256": "e83ca59b0c0e5eb2170abc6d89a34980fd04891399a65ceea18d810301a275e3",
        "size_in_bytes": 10333
      },
      {
        "_path": "bin/lzfgrep",
        "path_type": "softlink",
        "sha256": "e83ca59b0c0e5eb2170abc6d89a34980fd04891399a65ceea18d810301a275e3",
        "size_in_bytes": 10333
      },
      {
        "_path": "bin/lzgrep",
        "path_type": "softlink",
        "sha256": "e83ca59b0c0e5eb2170abc6d89a34980fd04891399a65ceea18d810301a275e3",
        "size_in_bytes": 10333
      },
      {
        "_path": "bin/lzless",
        "path_type": "softlink",
        "sha256": "a25b3dee9826b993f4fe0043e6d3073c6658925c28afc303917d62b1cf465051",
        "size_in_bytes": 1813
      },
      {
        "_path": "bin/lzma",
        "path_type": "softlink",
        "sha256": "6e8ffc9f7104aaccf2fa5f5f1c4e5e0c2d8502b2a173badacebcc148b67cecb9",
        "size_in_bytes": 103816
      },
      {
        "_path": "bin/lzmadec",
        "path_type": "hardlink",
        "sha256": "e27f42cbfed6a7aa9230f414256a69893d25185120edb77ee956422d33b4f366",
        "sha256_in_prefix": "e27f42cbfed6a7aa9230f414256a69893d25185120edb77ee956422d33b4f366",
        "size_in_bytes": 17184
      },
      {
        "_path": "bin/lzmainfo",
        "file_mode": "binary",
        "path_type": "hardlink",
        "prefix_placeholder": "/croot/xz_1701723911925/_h_env_placehold_placehold_placehold_placehold_placehold_placehold_placehold_placehold_placehold_placehold_placehold_placehold_placehold_placehold_placehold_placehold_placehold_placehold_placehold_placehold_placehold_placehold_plac",
        "sha256": "c54378bbf7638240bef893f3e17547f3b066b0cbee9f92dd58717322402a71c8",
        "sha256_in_prefix": "645366cf909f2c52c316bab0e10c2a881b45b188ae28137aa5f2899ad0829b1e",
        "size_in_bytes": 17016
      },
      {
        "_path": "bin/lzmore",
        "path_type": "softlink",
        "sha256": "e40b6cfbd6dcfd6fa46b721f7afb36efbbf3a8fbea1cd20f64b6123400f39306",
        "size_in_bytes": 2190
      },
      {
        "_path": "bin/unlzma",
        "path_type": "softlink",
        "sha256": "6e8ffc9f7104aaccf2fa5f5f1c4e5e0c2d8502b2a173badacebcc148b67cecb9",
        "size_in_bytes": 103816
      },
      {
        "_path": "bin/unxz",
        "path_type": "softlink",
        "sha256": "6e8ffc9f7104aaccf2fa5f5f1c4e5e0c2d8502b2a173badacebcc148b67cecb9",
        "size_in_bytes": 103816
      },
      {
        "_path": "bin/xz",
        "file_mode": "binary",
        "path_type": "hardlink",
        "prefix_placeholder": "/croot/xz_1701723911925/_h_env_placehold_placehold_placehold_placehold_placehold_placehold_placehold_placehold_placehold_placehold_placehold_placehold_placehold_placehold_placehold_placehold_placehold_placehold_placehold_placehold_placehold_placehold_plac",
        "sha256": "6e8ffc9f7104aaccf2fa5f5f1c4e5e0c2d8502b2a173badacebcc148b67cecb9",
        "sha256_in_prefix": "912709c96c5e3d2be9fa8ff63ad4ff1bc4007d2d13071041cd5cbd64680fe5f5",
        "size_in_bytes": 103816
      },
      {
        "_path": "bin/xzcat",
        "path_type": "softlink",
        "sha256": "6e8ffc9f7104aaccf2fa5f5f1c4e5e0c2d8502b2a173badacebcc148b67cecb9",
        "size_in_bytes": 103816
      },
      {
        "_path": "bin/xzcmp",
        "path_type": "softlink",
        "sha256": "551e26acd2c7d3f56ab6f43916cfcaafb96955eda66b656f1ed9a708f52e7667",
        "size_in_bytes": 7422
      },
      {
        "_path": "bin/xzdec",
        "path_type": "hardlink",
        "sha256": "99e8301ad349cca59d8be9c371d9bfbeb1380bb0cfbc1431301816d6d93f7d47",
        "sha256_in_prefix": "99e8301ad349cca59d8be9c371d9bfbeb1380bb0cfbc1431301816d6d93f7d47",
        "size_in_bytes": 17184
      },
      {
        "_path": "bin/xzdiff",
        "path_type": "hardlink",
        "sha256": "551e26acd2c7d3f56ab6f43916cfcaafb96955eda66b656f1ed9a708f52e7667",
        "sha256_in_prefix": "551e26acd2c7d3f56ab6f43916cfcaafb96955eda66b656f1ed9a708f52e7667",
        "size_in_bytes": 7422
      },
      {
        "_path": "bin/xzegrep",
        "path_type": "softlink",
        "sha256": "e83ca59b0c0e5eb2170abc6d89a34980fd04891399a65ceea18d810301a275e3",
        "size_in_bytes": 10333
      },
      {
        "_path": "bin/xzfgrep",
        "path_type": "softlink",
        "sha256": "e83ca59b0c0e5eb2170abc6d89a34980fd04891399a65ceea18d810301a275e3",
        "size_in_bytes": 10333
      },
      {
        "_path": "bin/xzgrep",
        "path_type": "hardlink",
        "sha256": "e83ca59b0c0e5eb2170abc6d89a34980fd04891399a65ceea18d810301a275e3",
        "sha256_in_prefix": "e83ca59b0c0e5eb2170abc6d89a34980fd04891399a65ceea18d810301a275e3",
        "size_in_bytes": 10333
      },
      {
        "_path": "bin/xzless",
        "path_type": "hardlink",
        "sha256": "a25b3dee9826b993f4fe0043e6d3073c6658925c28afc303917d62b1cf465051",
        "sha256_in_prefix": "a25b3dee9826b993f4fe0043e6d3073c6658925c28afc303917d62b1cf465051",
        "size_in_bytes": 1813
      },
      {
        "_path": "bin/xzmore",
        "path_type": "hardlink",
        "sha256": "e40b6cfbd6dcfd6fa46b721f7afb36efbbf3a8fbea1cd20f64b6123400f39306",
        "sha256_in_prefix": "e40b6cfbd6dcfd6fa46b721f7afb36efbbf3a8fbea1cd20f64b6123400f39306",
        "size_in_bytes": 2190
      },
      {
        "_path": "include/lzma.h",
        "path_type": "hardlink",
        "sha256": "999947938a4c08ca58503925cc8e7cae10d1910a6506d150e423a8d42f3fc735",
        "sha256_in_prefix": "999947938a4c08ca58503925cc8e7cae10d1910a6506d150e423a8d42f3fc735",
        "size_in_bytes": 9959
      },
      {
        "_path": "include/lzma/base.h",
        "path_type": "hardlink",
        "sha256": "c547e5692f0a1e938b72669f3dd4d586bbfc6b1ac090ac526727f0838b168393",
        "sha256_in_prefix": "c547e5692f0a1e938b72669f3dd4d586bbfc6b1ac090ac526727f0838b168393",
        "size_in_bytes": 28145
      },
      {
        "_path": "include/lzma/bcj.h",
        "path_type": "hardlink",
        "sha256": "eb476931d15a174904d9696c377582e505cb98f3caed1905d17b5c05029549bd",
        "sha256_in_prefix": "eb476931d15a174904d9696c377582e505cb98f3caed1905d17b5c05029549bd",
        "size_in_bytes": 2790
      },
      {
        "_path": "include/lzma/block.h",
        "path_type": "hardlink",
        "sha256": "9404bdeb7399a8311850f5e8be580e521b31f8dd5d4066f6d9ddb8641678c053",
        "sha256_in_prefix": "9404bdeb7399a8311850f5e8be580e521b31f8dd5d4066f6d9ddb8641678c053",
        "size_in_bytes": 26028
      },
      {
        "_path": "include/lzma/check.h",
        "path_type": "hardlink",
        "sha256": "e98b6df731ec386e421a40651991fcd3eac84ab63781f86cfbc7073fbc1ec998",
        "sha256_in_prefix": "e98b6df731ec386e421a40651991fcd3eac84ab63781f86cfbc7073fbc1ec998",
        "size_in_bytes": 4904
      },
      {
        "_path": "include/lzma/container.h",
        "path_type": "hardlink",
        "sha256": "b3621727198b67fd44849a838a274f71e59543d5faf906e5e847377dd89390e7",
        "sha256_in_prefix": "b3621727198b67fd44849a838a274f71e59543d5faf906e5e847377dd89390e7",
        "size_in_bytes": 40821
      },
      {
        "_path": "include/lzma/delta.h",
        "path_type": "hardlink",
        "sha256": "9f99742c20595af65103e67b210ea6b9a348d8b6f13f007d36734b0d293e31dc",
        "sha256_in_prefix": "9f99742c20595af65103e67b210ea6b9a348d8b6f13f007d36734b0d293e31dc",
        "size_in_bytes": 2251
      },
      {
        "_path": "include/lzma/filter.h",
        "path_type": "hardlink",
        "sha256": "5d595ecdfd045c1daea1e6f1f636e25b955e02a8b9eb190d196b5ca4d1091cf5",
        "sha256_in_prefix": "5d595ecdfd045c1daea1e6f1f636e25b955e02a8b9eb190d196b5ca4d1091cf5",
        "size_in_bytes": 31810
      },
      {
        "_path": "include/lzma/hardware.h",
        "path_type": "hardlink",
        "sha256": "c557f4c88fcbf45bb780a4e912ebabe30609624d7cf53c1b267b57657303df15",
        "sha256_in_prefix": "c557f4c88fcbf45bb780a4e912ebabe30609624d7cf53c1b267b57657303df15",
        "size_in_bytes": 2614
      },
      {
        "_path": "include/lzma/index.h",
        "path_type": "hardlink",
        "sha256": "23b66b3eb16ae52b38bea0d397ec693f5ac6506c89186671c2b17050cd0cf3ba",
        "sha256_in_prefix": "23b66b3eb16ae52b38bea0d397ec693f5ac6506c89186671c2b17050cd0cf3ba",
        "size_in_bytes": 30371
      },
      {
        "_path": "include/lzma/index_hash.h",
        "path_type": "hardlink",
        "sha256": "d8207d4a784ca6f6a10d95992a26eab0c8b6b6db38525bbec04a589bfd696a26",
        "sha256_in_prefix": "d8207d4a784ca6f6a10d95992a26eab0c8b6b6db38525bbec04a589bfd696a26",
        "size_in_bytes": 4735
      },
      {
        "_path": "include/lzma/lzma12.h",
        "path_type": "hardlink",
        "sha256": "2f42d62066796a589bc186f77f02dbcf59c0d46f1887db903ab1bd28ccebd2f3",
        "sha256_in_prefix": "2f42d62066796a589bc186f77f02dbcf59c0d46f1887db903ab1bd28ccebd2f3",
        "size_in_bytes": 20882
      },
      {
        "_path": "include/lzma/stream_flags.h",
        "path_type": "hardlink",
        "sha256": "85152d87811789956d0602152f3c51fca628d0aa99ddacb44813fa04f8f9aa98",
        "sha256_in_prefix": "85152d87811789956d0602152f3c51fca628d0aa99ddacb44813fa04f8f9aa98",
        "size_in_bytes": 9303
      },
      {
        "_path": "include/lzma/version.h",
        "path_type": "hardlink",
        "sha256": "33a691b003409debda7e565fe8dc6992649531f75b0370de7f124b49e0bcc922",
        "sha256_in_prefix": "33a691b003409debda7e565fe8dc6992649531f75b0370de7f124b49e0bcc922",
        "size_in_bytes": 3936
      },
      {
        "_path": "include/lzma/vli.h",
        "path_type": "hardlink",
        "sha256": "0fde3d0606456f70d60a2c1895df592679cee851c95d72532391f309d1ac8671",
        "sha256_in_prefix": "0fde3d0606456f70d60a2c1895df592679cee851c95d72532391f309d1ac8671",
        "size_in_bytes": 6699
      },
      {
        "_path": "lib/liblzma.a",
        "path_type": "hardlink",
        "sha256": "9bc5c13dd48c4fd993e6abc7ed7c6b2774a73897de3e8be9c6cb61ce3eb143f5",
        "sha256_in_prefix": "9bc5c13dd48c4fd993e6abc7ed7c6b2774a73897de3e8be9c6cb61ce3eb143f5",
        "size_in_bytes": 424786
      },
      {
        "_path": "lib/liblzma.so",
        "path_type": "softlink",
        "sha256": "04454728957f2d0dbd251806a632914b78af111bbee61acfc1551ec5e833e05d",
        "size_in_bytes": 213984
      },
      {
        "_path": "lib/liblzma.so.5",
        "path_type": "softlink",
        "sha256": "04454728957f2d0dbd251806a632914b78af111bbee61acfc1551ec5e833e05d",
        "size_in_bytes": 213984
      },
      {
        "_path": "lib/liblzma.so.5.4.5",
        "path_type": "hardlink",
        "sha256": "04454728957f2d0dbd251806a632914b78af111bbee61acfc1551ec5e833e05d",
        "sha256_in_prefix": "04454728957f2d0dbd251806a632914b78af111bbee61acfc1551ec5e833e05d",
        "size_in_bytes": 213984
      },
      {
        "_path": "lib/pkgconfig/liblzma.pc",
        "file_mode": "text",
        "path_type": "hardlink",
        "prefix_placeholder": "/croot/xz_1701723911925/_h_env_placehold_placehold_placehold_placehold_placehold_placehold_placehold_placehold_placehold_placehold_placehold_placehold_placehold_placehold_placehold_placehold_placehold_placehold_placehold_placehold_placehold_placehold_plac",
        "sha256": "80ca370699ef914ea7dbf50c78172db3a2933e8fbcdc42d8971d38260b0c80f9",
        "sha256_in_prefix": "6c61c1b73470d23a1a21c2dde4ea9b8452eb2b0ce5659f074869754842d826e0",
        "size_in_bytes": 1428
      },
      {
        "_path": "share/doc/xz/AUTHORS",
        "path_type": "hardlink",
        "sha256": "07def6a20ec5430b6ad04cf1286da3f53fbb86cf6d2026119945ccd55d3a2258",
        "sha256_in_prefix": "07def6a20ec5430b6ad04cf1286da3f53fbb86cf6d2026119945ccd55d3a2258",
        "size_in_bytes": 1402
      },
      {
        "_path": "share/doc/xz/COPYING",
        "path_type": "hardlink",
        "sha256": "72d7ef9c98be319fd34ce88b45203b36d5936f9c49e82bf3198ffee5e0c7d87e",
        "sha256_in_prefix": "72d7ef9c98be319fd34ce88b45203b36d5936f9c49e82bf3198ffee5e0c7d87e",
        "size_in_bytes": 3330
      },
      {
        "_path": "share/doc/xz/COPYING.GPLv2",
        "path_type": "hardlink",
        "sha256": "8177f97513213526df2cf6184d8ff986c675afb514d4e68a404010521b880643",
        "sha256_in_prefix": "8177f97513213526df2cf6184d8ff986c675afb514d4e68a404010521b880643",
        "size_in_bytes": 18092
      },
      {
        "_path": "share/doc/xz/NEWS",
        "path_type": "hardlink",
        "sha256": "87ccd8900aa07426308eda27c6faf1ffbe015abc391a87ef56c9716830ea2883",
        "sha256_in_prefix": "87ccd8900aa07426308eda27c6faf1ffbe015abc391a87ef56c9716830ea2883",
        "size_in_bytes": 72094
      },
      {
        "_path": "share/doc/xz/README",
        "path_type": "hardlink",
        "sha256": "a01a91f0a0d47b4fa84d9c7e8b47c4f97c23a464c88a67ba2d050af477b96e9e",
        "sha256_in_prefix": "a01a91f0a0d47b4fa84d9c7e8b47c4f97c23a464c88a67ba2d050af477b96e9e",
        "size_in_bytes": 13176
      },
      {
        "_path": "share/doc/xz/THANKS",
        "path_type": "hardlink",
        "sha256": "ce046b19c781f0a9212449d629cb65032ee03bd0d3eaf1bad821a8dcf30d7d78",
        "sha256_in_prefix": "ce046b19c781f0a9212449d629cb65032ee03bd0d3eaf1bad821a8dcf30d7d78",
        "size_in_bytes": 3426
      },
      {
        "_path": "share/doc/xz/TODO",
        "path_type": "hardlink",
        "sha256": "d3e94ce46e630c9c6f86df16937886ea4cdf021746e5be3e2ad90b52c7726c29",
        "sha256_in_prefix": "d3e94ce46e630c9c6f86df16937886ea4cdf021746e5be3e2ad90b52c7726c29",
        "size_in_bytes": 4007
      },
      {
        "_path": "share/doc/xz/api/annotated.html",
        "path_type": "hardlink",
        "sha256": "69cc9501fa6d711bf402a18f5918cb00ccc78b42f026bf8d3aab494a46c9503d",
        "sha256_in_prefix": "69cc9501fa6d711bf402a18f5918cb00ccc78b42f026bf8d3aab494a46c9503d",
        "size_in_bytes": 5287
      },
      {
        "_path": "share/doc/xz/api/base_8h.html",
        "path_type": "hardlink",
        "sha256": "b290dcc173bf212a9feac7b13500ed8eba195f1111ac125110ddf663fd6fe03c",
        "sha256_in_prefix": "b290dcc173bf212a9feac7b13500ed8eba195f1111ac125110ddf663fd6fe03c",
        "size_in_bytes": 50606
      },
      {
        "_path": "share/doc/xz/api/bc_s.png",
        "path_type": "hardlink",
        "sha256": "40c1002f285b442a4eebdb2016ab8022b380f3c88b79589338eb24950b6e7900",
        "sha256_in_prefix": "40c1002f285b442a4eebdb2016ab8022b380f3c88b79589338eb24950b6e7900",
        "size_in_bytes": 675
      },
      {
        "_path": "share/doc/xz/api/bc_sd.png",
        "path_type": "hardlink",
        "sha256": "44e26085a02980f86c7845af232ff59facadf580634aa9dc95618fbd4aae7981",
        "sha256_in_prefix": "44e26085a02980f86c7845af232ff59facadf580634aa9dc95618fbd4aae7981",
        "size_in_bytes": 604
      },
      {
        "_path": "share/doc/xz/api/bcj_8h.html",
        "path_type": "hardlink",
        "sha256": "66b396243132a6c775c336cc4aaa230c68bb6ea4466e882206b45c993c10ec06",
        "sha256_in_prefix": "66b396243132a6c775c336cc4aaa230c68bb6ea4466e882206b45c993c10ec06",
        "size_in_bytes": 8128
      },
      {
        "_path": "share/doc/xz/api/block_8h.html",
        "path_type": "hardlink",
        "sha256": "7397212c07110a0222dde5027d717c5b4356a63d3aa1dc2ba42aa65407992846",
        "sha256_in_prefix": "7397212c07110a0222dde5027d717c5b4356a63d3aa1dc2ba42aa65407992846",
        "size_in_bytes": 49609
      },
      {
        "_path": "share/doc/xz/api/check_8h.html",
        "path_type": "hardlink",
        "sha256": "6346662997e3639b7d46ec4030611545fcb683e01ef5e2b78b3935ecbfbec4d6",
        "sha256_in_prefix": "6346662997e3639b7d46ec4030611545fcb683e01ef5e2b78b3935ecbfbec4d6",
        "size_in_bytes": 20000
      },
      {
        "_path": "share/doc/xz/api/classes.html",
        "path_type": "hardlink",
        "sha256": "e71c9b8fac0bfeca857ade35e00536158a015fdddf2f8f064ec490d6e0d20425",
        "sha256_in_prefix": "e71c9b8fac0bfeca857ade35e00536158a015fdddf2f8f064ec490d6e0d20425",
        "size_in_bytes": 2935
      },
      {
        "_path": "share/doc/xz/api/closed.png",
        "path_type": "hardlink",
        "sha256": "61d03fb22cc74a899bf482dbd7a0e9da58f5421fd53257e2592855aac99cdafc",
        "sha256_in_prefix": "61d03fb22cc74a899bf482dbd7a0e9da58f5421fd53257e2592855aac99cdafc",
        "size_in_bytes": 132
      },
      {
        "_path": "share/doc/xz/api/container_8h.html",
        "path_type": "hardlink",
        "sha256": "84ccf9a35b989baae22242edcb4bdbbd62ebecac85e3b41da7530e8e3cfc531d",
        "sha256_in_prefix": "84ccf9a35b989baae22242edcb4bdbbd62ebecac85e3b41da7530e8e3cfc531d",
        "size_in_bytes": 87034
      },
      {
        "_path": "share/doc/xz/api/delta_8h.html",
        "path_type": "hardlink",
        "sha256": "be8439d15f2e226c05d8bc862ad34ce66c5d8b81bdb879ec461b939482600dce",
        "sha256_in_prefix": "be8439d15f2e226c05d8bc862ad34ce66c5d8b81bdb879ec461b939482600dce",
        "size_in_bytes": 7999
      },
      {
        "_path": "share/doc/xz/api/dir_b17a1d403082bd69a703ed987cf158fb.html",
        "path_type": "hardlink",
        "sha256": "d23c47b7fdac754426507e2efdf949ce20ba89391b43a5507fd28791aa862534",
        "sha256_in_prefix": "d23c47b7fdac754426507e2efdf949ce20ba89391b43a5507fd28791aa862534",
        "size_in_bytes": 8246
      },
      {
        "_path": "share/doc/xz/api/doc.svg",
        "path_type": "hardlink",
        "sha256": "2f7a482610657d278a6e7499421fdb6b1277bcdf9678073b18f063385dbbd1ad",
        "sha256_in_prefix": "2f7a482610657d278a6e7499421fdb6b1277bcdf9678073b18f063385dbbd1ad",
        "size_in_bytes": 1503
      },
      {
        "_path": "share/doc/xz/api/docd.svg",
        "path_type": "hardlink",
        "sha256": "15e457d10ab2ff614fda6442b10ef0283bfb45e53abd8f26846c54f848076ac7",
        "sha256_in_prefix": "15e457d10ab2ff614fda6442b10ef0283bfb45e53abd8f26846c54f848076ac7",
        "size_in_bytes": 1503
      },
      {
        "_path": "share/doc/xz/api/doxygen.css",
        "path_type": "hardlink",
        "sha256": "a7155dbdfc534d1bf3582a27889fa749482b6bf2cfb3a69db9f1f7e32359b5cf",
        "sha256_in_prefix": "a7155dbdfc534d1bf3582a27889fa749482b6bf2cfb3a69db9f1f7e32359b5cf",
        "size_in_bytes": 44883
      },
      {
        "_path": "share/doc/xz/api/doxygen.svg",
        "path_type": "hardlink",
        "sha256": "b2c0a5c4e7ae8a9cb98fa5c5dbf428639100ca9f6ccc0543e3ba58e695aeadb1",
        "sha256_in_prefix": "b2c0a5c4e7ae8a9cb98fa5c5dbf428639100ca9f6ccc0543e3ba58e695aeadb1",
        "size_in_bytes": 15461
      },
      {
        "_path": "share/doc/xz/api/files.html",
        "path_type": "hardlink",
        "sha256": "ea927eb0fe491c791327e41b97e3c3fc9668900c3e112cd6117257a9f60fcb37",
        "sha256_in_prefix": "ea927eb0fe491c791327e41b97e3c3fc9668900c3e112cd6117257a9f60fcb37",
        "size_in_bytes": 6526
      },
      {
        "_path": "share/doc/xz/api/filter_8h.html",
        "path_type": "hardlink",
        "sha256": "4cc497a0c86adbbd2ef48176c5b442addea595975a6eb71e458f3944090e8f8c",
        "sha256_in_prefix": "4cc497a0c86adbbd2ef48176c5b442addea595975a6eb71e458f3944090e8f8c",
        "size_in_bytes": 86206
      },
      {
        "_path": "share/doc/xz/api/folderclosed.svg",
        "path_type": "hardlink",
        "sha256": "19b2df59b55b2f4cd686a4da6ecdf6d6210b3440ee0dc8cbe96b0af70fa65783",
        "sha256_in_prefix": "19b2df59b55b2f4cd686a4da6ecdf6d6210b3440ee0dc8cbe96b0af70fa65783",
        "size_in_bytes": 1996
      },
      {
        "_path": "share/doc/xz/api/folderclosedd.svg",
        "path_type": "hardlink",
        "sha256": "0b021a190231e5a8b4d01506c19220fa63891e00c9d2a69dd5990a92225e08fe",
        "sha256_in_prefix": "0b021a190231e5a8b4d01506c19220fa63891e00c9d2a69dd5990a92225e08fe",
        "size_in_bytes": 1996
      },
      {
        "_path": "share/doc/xz/api/folderopen.svg",
        "path_type": "hardlink",
        "sha256": "2ee9c932984992dcde12ce8e832060aca3f1859f08047c40141f184207a25aeb",
        "sha256_in_prefix": "2ee9c932984992dcde12ce8e832060aca3f1859f08047c40141f184207a25aeb",
        "size_in_bytes": 3269
      },
      {
        "_path": "share/doc/xz/api/folderopend.svg",
        "path_type": "hardlink",
        "sha256": "6dcd4954292c79a55451a17100355483a2f3a2dcbc6aacb966268c277bad2170",
        "sha256_in_prefix": "6dcd4954292c79a55451a17100355483a2f3a2dcbc6aacb966268c277bad2170",
        "size_in_bytes": 3214
      },
      {
        "_path": "share/doc/xz/api/functions.html",
        "path_type": "hardlink",
        "sha256": "6e28b2b8cb916f768f0ca04d4ddf8bdb38393316174e9db31e13679c79349910",
        "sha256_in_prefix": "6e28b2b8cb916f768f0ca04d4ddf8bdb38393316174e9db31e13679c79349910",
        "size_in_bytes": 12896
      },
      {
        "_path": "share/doc/xz/api/functions_vars.html",
        "path_type": "hardlink",
        "sha256": "896587c100a278688658afc7d7ee5223c14cee05fc3322df33fec5456cb4d404",
        "sha256_in_prefix": "896587c100a278688658afc7d7ee5223c14cee05fc3322df33fec5456cb4d404",
        "size_in_bytes": 12894
      },
      {
        "_path": "share/doc/xz/api/globals.html",
        "path_type": "hardlink",
        "sha256": "ebbcef748165c35a9760d8e28b729c76f079e26e0199badcb919122161d29d55",
        "sha256_in_prefix": "ebbcef748165c35a9760d8e28b729c76f079e26e0199badcb919122161d29d55",
        "size_in_bytes": 28970
      },
      {
        "_path": "share/doc/xz/api/globals_defs.html",
        "path_type": "hardlink",
        "sha256": "bf692e0cfb1d11ba4a398310e2d3c73f4b8c611061fd01ffdab0328253956c0d",
        "sha256_in_prefix": "bf692e0cfb1d11ba4a398310e2d3c73f4b8c611061fd01ffdab0328253956c0d",
        "size_in_bytes": 8721
      },
      {
        "_path": "share/doc/xz/api/globals_enum.html",
        "path_type": "hardlink",
        "sha256": "64b09a95f6266c11e4281e12bc896cc786f52a87c504db46020a1038ba6f45d7",
        "sha256_in_prefix": "64b09a95f6266c11e4281e12bc896cc786f52a87c504db46020a1038ba6f45d7",
        "size_in_bytes": 3395
      },
      {
        "_path": "share/doc/xz/api/globals_eval.html",
        "path_type": "hardlink",
        "sha256": "a83e9eb46166195851454032a60b5c3c347ef49a8625e479ebe011f84ac03d45",
        "sha256_in_prefix": "a83e9eb46166195851454032a60b5c3c347ef49a8625e479ebe011f84ac03d45",
        "size_in_bytes": 7642
      },
      {
        "_path": "share/doc/xz/api/globals_func.html",
        "path_type": "hardlink",
        "sha256": "18256eefb89e711ced8cc458d396903e0c430e180bceedf1385100683f763064",
        "sha256_in_prefix": "18256eefb89e711ced8cc458d396903e0c430e180bceedf1385100683f763064",
        "size_in_bytes": 16386
      },
      {
        "_path": "share/doc/xz/api/globals_type.html",
        "path_type": "hardlink",
        "sha256": "40b739b642fb4dd15f194a8cc60a6f3f627829965f5c2195af0ed2402764c7fd",
        "sha256_in_prefix": "40b739b642fb4dd15f194a8cc60a6f3f627829965f5c2195af0ed2402764c7fd",
        "size_in_bytes": 3041
      },
      {
        "_path": "share/doc/xz/api/hardware_8h.html",
        "path_type": "hardlink",
        "sha256": "3b1306c2596ec9974917018129b47eacec2b88d13f752626427a7f78bac46845",
        "sha256_in_prefix": "3b1306c2596ec9974917018129b47eacec2b88d13f752626427a7f78bac46845",
        "size_in_bytes": 7127
      },
      {
        "_path": "share/doc/xz/api/index.html",
        "path_type": "hardlink",
        "sha256": "cf89b21e0dce31fda51fd2e0389471e782469388e15026072fc11a760d26d52d",
        "sha256_in_prefix": "cf89b21e0dce31fda51fd2e0389471e782469388e15026072fc11a760d26d52d",
        "size_in_bytes": 2863
      },
      {
        "_path": "share/doc/xz/api/index_8h.html",
        "path_type": "hardlink",
        "sha256": "15bfdd1b734731d7e3f6e514321e34e0345ef3046966599470218494cadfea4a",
        "sha256_in_prefix": "15bfdd1b734731d7e3f6e514321e34e0345ef3046966599470218494cadfea4a",
        "size_in_bytes": 84291
      },
      {
        "_path": "share/doc/xz/api/index__hash_8h.html",
        "path_type": "hardlink",
        "sha256": "7fb5f660c404a384b20e401f7ae899fe24dfcff7360a3339ffa39cf9fc9fc7e0",
        "sha256_in_prefix": "7fb5f660c404a384b20e401f7ae899fe24dfcff7360a3339ffa39cf9fc9fc7e0",
        "size_in_bytes": 18778
      },
      {
        "_path": "share/doc/xz/api/lzma12_8h.html",
        "path_type": "hardlink",
        "sha256": "1da359a396e4d89522a8f5efa0eda55363edfbd9eab0975a8ebc7977cd90bb5e",
        "sha256_in_prefix": "1da359a396e4d89522a8f5efa0eda55363edfbd9eab0975a8ebc7977cd90bb5e",
        "size_in_bytes": 31175
      },
      {
        "_path": "share/doc/xz/api/lzma_8h.html",
        "path_type": "hardlink",
        "sha256": "ac5003cd1ed4040b00d2d8723bb52d8c8adde90241269aa9f7efe9a60839072f",
        "sha256_in_prefix": "ac5003cd1ed4040b00d2d8723bb52d8c8adde90241269aa9f7efe9a60839072f",
        "size_in_bytes": 7819
      },
      {
        "_path": "share/doc/xz/api/nav_f.png",
        "path_type": "hardlink",
        "sha256": "caa68fdea58a5970fa0dcddb5ae60eadb7e5f9f924cc4a4bdf752be4e167cd7d",
        "sha256_in_prefix": "caa68fdea58a5970fa0dcddb5ae60eadb7e5f9f924cc4a4bdf752be4e167cd7d",
        "size_in_bytes": 167
      },
      {
        "_path": "share/doc/xz/api/nav_fd.png",
        "path_type": "hardlink",
        "sha256": "99c8da17a2930144934fd20a758d31493302ef16834a09055222372002bfd057",
        "sha256_in_prefix": "99c8da17a2930144934fd20a758d31493302ef16834a09055222372002bfd057",
        "size_in_bytes": 144
      },
      {
        "_path": "share/doc/xz/api/nav_g.png",
        "path_type": "hardlink",
        "sha256": "3171164c16baa5953c17821a7ce5feac673c05a56b287453ce3a0bf5048f0999",
        "sha256_in_prefix": "3171164c16baa5953c17821a7ce5feac673c05a56b287453ce3a0bf5048f0999",
        "size_in_bytes": 95
      },
      {
        "_path": "share/doc/xz/api/nav_h.png",
        "path_type": "hardlink",
        "sha256": "2a0dc06f88667ff966189753a6357474f4194b5c14a54c51a4c383aef2bd0dc5",
        "sha256_in_prefix": "2a0dc06f88667ff966189753a6357474f4194b5c14a54c51a4c383aef2bd0dc5",
        "size_in_bytes": 97
      },
      {
        "_path": "share/doc/xz/api/nav_hd.png",
        "path_type": "hardlink",
        "sha256": "a275b4654e9fd1e78c49d72cda651e62a70d810c6c1da55740489cb8e08e3839",
        "sha256_in_prefix": "a275b4654e9fd1e78c49d72cda651e62a70d810c6c1da55740489cb8e08e3839",
        "size_in_bytes": 104
      },
      {
        "_path": "share/doc/xz/api/open.png",
        "path_type": "hardlink",
        "sha256": "adab1a36d7377ada1431d18bb9a1db07e50b823956ef3950e8e9e51d6fd97d3d",
        "sha256_in_prefix": "adab1a36d7377ada1431d18bb9a1db07e50b823956ef3950e8e9e51d6fd97d3d",
        "size_in_bytes": 121
      },
      {
        "_path": "share/doc/xz/api/splitbar.png",
        "path_type": "hardlink",
        "sha256": "3ab833b3de01d02246395937ae8f125bb6b7dc76a38b8cee0b7141b5e82f83aa",
        "sha256_in_prefix": "3ab833b3de01d02246395937ae8f125bb6b7dc76a38b8cee0b7141b5e82f83aa",
        "size_in_bytes": 309
      },
      {
        "_path": "share/doc/xz/api/splitbard.png",
        "path_type": "hardlink",
        "sha256": "f5fd64c7e914fd05f77828f37889be922bee3bbf95d2407ba6b4cfb2366562d7",
        "sha256_in_prefix": "f5fd64c7e914fd05f77828f37889be922bee3bbf95d2407ba6b4cfb2366562d7",
        "size_in_bytes": 278
      },
      {
        "_path": "share/doc/xz/api/stream__flags_8h.html",
        "path_type": "hardlink",
        "sha256": "baf8faf0b8d0b35f5af60ab99303f4e2ea2a6ffaa37c45487b605f4e62c96e23",
        "sha256_in_prefix": "baf8faf0b8d0b35f5af60ab99303f4e2ea2a6ffaa37c45487b605f4e62c96e23",
        "size_in_bytes": 21519
      },
      {
        "_path": "share/doc/xz/api/structlzma__allocator.html",
        "path_type": "hardlink",
        "sha256": "1aa37cc88758566255bc359cb6bed833a7964e2fc17a00548c921d7ee47b4397",
        "sha256_in_prefix": "1aa37cc88758566255bc359cb6bed833a7964e2fc17a00548c921d7ee47b4397",
        "size_in_bytes": 12600
      },
      {
        "_path": "share/doc/xz/api/structlzma__block.html",
        "path_type": "hardlink",
        "sha256": "4aaad4991251a3514aa0414f5c4f927aedba9a1b550ec4c0e59f5f5753931667",
        "sha256_in_prefix": "4aaad4991251a3514aa0414f5c4f927aedba9a1b550ec4c0e59f5f5753931667",
        "size_in_bytes": 27471
      },
      {
        "_path": "share/doc/xz/api/structlzma__filter.html",
        "path_type": "hardlink",
        "sha256": "1c60145d23b0c239895064da5aa91096dccc7032115447b33b7ac0757e36579a",
        "sha256_in_prefix": "1c60145d23b0c239895064da5aa91096dccc7032115447b33b7ac0757e36579a",
        "size_in_bytes": 6311
      },
      {
        "_path": "share/doc/xz/api/structlzma__index__iter.html",
        "path_type": "hardlink",
        "sha256": "689a03914650bd85f2903836d09f489f5c439730fba0387e29697143bb573528",
        "sha256_in_prefix": "689a03914650bd85f2903836d09f489f5c439730fba0387e29697143bb573528",
        "size_in_bytes": 27517
      },
      {
        "_path": "share/doc/xz/api/structlzma__mt.html",
        "path_type": "hardlink",
        "sha256": "9a676677f46562a476c11b4f756e4ab6a6c5ef5801b20a2f4ba1ec61ca5445c4",
        "sha256_in_prefix": "9a676677f46562a476c11b4f756e4ab6a6c5ef5801b20a2f4ba1ec61ca5445c4",
        "size_in_bytes": 17587
      },
      {
        "_path": "share/doc/xz/api/structlzma__options__bcj.html",
        "path_type": "hardlink",
        "sha256": "2db654cc825f2865a3a91f6cdf461b9475f5f2646bbd0cd8d900f938edb7715d",
        "sha256_in_prefix": "2db654cc825f2865a3a91f6cdf461b9475f5f2646bbd0cd8d900f938edb7715d",
        "size_in_bytes": 5129
      },
      {
        "_path": "share/doc/xz/api/structlzma__options__delta.html",
        "path_type": "hardlink",
        "sha256": "278e2c08d4f5d7ff6943d3e5abccc69eebd51bcd98033a410a2bf58bdd8227bb",
        "sha256_in_prefix": "278e2c08d4f5d7ff6943d3e5abccc69eebd51bcd98033a410a2bf58bdd8227bb",
        "size_in_bytes": 5073
      },
      {
        "_path": "share/doc/xz/api/structlzma__options__lzma.html",
        "path_type": "hardlink",
        "sha256": "240ebf09e84ba04489235e4958381c99b942c15cfbce7ffcad8705d22c6bb4e7",
        "sha256_in_prefix": "240ebf09e84ba04489235e4958381c99b942c15cfbce7ffcad8705d22c6bb4e7",
        "size_in_bytes": 26193
      },
      {
        "_path": "share/doc/xz/api/structlzma__stream.html",
        "path_type": "hardlink",
        "sha256": "03ae6d2fa75cbab1428cfde9b4f1519d5bcd29f67c65314bbade33b7ca5938a0",
        "sha256_in_prefix": "03ae6d2fa75cbab1428cfde9b4f1519d5bcd29f67c65314bbade33b7ca5938a0",
        "size_in_bytes": 15212
      },
      {
        "_path": "share/doc/xz/api/structlzma__stream__flags.html",
        "path_type": "hardlink",
        "sha256": "f9cb469a77244aa4c9cf40751818df481ff5331a281634b7b2ce5d8dea663025",
        "sha256_in_prefix": "f9cb469a77244aa4c9cf40751818df481ff5331a281634b7b2ce5d8dea663025",
        "size_in_bytes": 8227
      },
      {
        "_path": "share/doc/xz/api/sync_off.png",
        "path_type": "hardlink",
        "sha256": "b50c2d36a57595e5316742fca77f6d09f2ad22016f8d66729873d420931df14f",
        "sha256_in_prefix": "b50c2d36a57595e5316742fca77f6d09f2ad22016f8d66729873d420931df14f",
        "size_in_bytes": 857
      },
      {
        "_path": "share/doc/xz/api/sync_on.png",
        "path_type": "hardlink",
        "sha256": "7fc45af5a5dddbfed26ead70f6c62432c0d5b52e4a487a9382b9074d0b571037",
        "sha256_in_prefix": "7fc45af5a5dddbfed26ead70f6c62432c0d5b52e4a487a9382b9074d0b571037",
        "size_in_bytes": 851
      },
      {
        "_path": "share/doc/xz/api/tab_a.png",
        "path_type": "hardlink",
        "sha256": "9fa28b414d74fe8a538d92077f1c749cde51d6aa541b377c918a9de4f1285cca",
        "sha256_in_prefix": "9fa28b414d74fe8a538d92077f1c749cde51d6aa541b377c918a9de4f1285cca",
        "size_in_bytes": 135
      },
      {
        "_path": "share/doc/xz/api/tab_ad.png",
        "path_type": "hardlink",
        "sha256": "5e277846ab58ad2ee28ca4c3df2bb74886f6840d311e8db2fff60a25b065f138",
        "sha256_in_prefix": "5e277846ab58ad2ee28ca4c3df2bb74886f6840d311e8db2fff60a25b065f138",
        "size_in_bytes": 133
      },
      {
        "_path": "share/doc/xz/api/tab_b.png",
        "path_type": "hardlink",
        "sha256": "3de1aeb70d2b569124f06a87cce5589ba94acb2fe0c961fd8c4f84bd5bf3973d",
        "sha256_in_prefix": "3de1aeb70d2b569124f06a87cce5589ba94acb2fe0c961fd8c4f84bd5bf3973d",
        "size_in_bytes": 178
      },
      {
        "_path": "share/doc/xz/api/tab_bd.png",
        "path_type": "hardlink",
        "sha256": "2c91651e908e39af6b62656a36861723a64299fc514b3f325a1bcddbcee123d8",
        "sha256_in_prefix": "2c91651e908e39af6b62656a36861723a64299fc514b3f325a1bcddbcee123d8",
        "size_in_bytes": 157
      },
      {
        "_path": "share/doc/xz/api/tab_h.png",
        "path_type": "hardlink",
        "sha256": "40acc2576f002374eb002e6d752f82380e4fb78064009fa082b3441dc285262d",
        "sha256_in_prefix": "40acc2576f002374eb002e6d752f82380e4fb78064009fa082b3441dc285262d",
        "size_in_bytes": 179
      },
      {
        "_path": "share/doc/xz/api/tab_hd.png",
        "path_type": "hardlink",
        "sha256": "2e1aa9528dd6d58c2477fa167ed05091d942e1d9aa290774ee2de87fff20ad2c",
        "sha256_in_prefix": "2e1aa9528dd6d58c2477fa167ed05091d942e1d9aa290774ee2de87fff20ad2c",
        "size_in_bytes": 168
      },
      {
        "_path": "share/doc/xz/api/tab_s.png",
        "path_type": "hardlink",
        "sha256": "88e7215826f03b733fd2904895cdfd8dcea24d3cc814645d3cb80c797d020df5",
        "sha256_in_prefix": "88e7215826f03b733fd2904895cdfd8dcea24d3cc814645d3cb80c797d020df5",
        "size_in_bytes": 208
      },
      {
        "_path": "share/doc/xz/api/tab_sd.png",
        "path_type": "hardlink",
        "sha256": "cfa6177d83c58daa1e207e49ed66a683c3afc2df2395159e363f3231fa8e508b",
        "sha256_in_prefix": "cfa6177d83c58daa1e207e49ed66a683c3afc2df2395159e363f3231fa8e508b",
        "size_in_bytes": 171
      },
      {
        "_path": "share/doc/xz/api/tabs.css",
        "path_type": "hardlink",
        "sha256": "57d7b227fad4a0974162ef9c651e0683287a41061b2b64179ed54db74c510e32",
        "sha256_in_prefix": "57d7b227fad4a0974162ef9c651e0683287a41061b2b64179ed54db74c510e32",
        "size_in_bytes": 1344
      },
      {
        "_path": "share/doc/xz/api/version_8h.html",
        "path_type": "hardlink",
        "sha256": "a697c7ad14d2cf95b624148f3bb59b86f577879a3b48409c533f3b97de91637f",
        "sha256_in_prefix": "a697c7ad14d2cf95b624148f3bb59b86f577879a3b48409c533f3b97de91637f",
        "size_in_bytes": 17151
      },
      {
        "_path": "share/doc/xz/api/vli_8h.html",
        "path_type": "hardlink",
        "sha256": "780320a472c099a3ef1960ad99cdd3365a82f5c6e3ba572600e44686e77e1e75",
        "sha256_in_prefix": "780320a472c099a3ef1960ad99cdd3365a82f5c6e3ba572600e44686e77e1e75",
        "size_in_bytes": 20385
      },
      {
        "_path": "share/doc/xz/examples/00_README.txt",
        "path_type": "hardlink",
        "sha256": "f0ddaa731c89d6028f55281229e56b89f32b8c477aba4f52367488f0f42651be",
        "sha256_in_prefix": "f0ddaa731c89d6028f55281229e56b89f32b8c477aba4f52367488f0f42651be",
        "size_in_bytes": 1037
      },
      {
        "_path": "share/doc/xz/examples/01_compress_easy.c",
        "path_type": "hardlink",
        "sha256": "913af652f6eac0c728762ce5537d3ea175538573df6f34358ce522fc6087c40a",
        "sha256_in_prefix": "913af652f6eac0c728762ce5537d3ea175538573df6f34358ce522fc6087c40a",
        "size_in_bytes": 9533
      },
      {
        "_path": "share/doc/xz/examples/02_decompress.c",
        "path_type": "hardlink",
        "sha256": "1c8733c08e1edbd727bb623eb23b5505b32a4306e310ee4f9048fc9bf4af8de2",
        "sha256_in_prefix": "1c8733c08e1edbd727bb623eb23b5505b32a4306e310ee4f9048fc9bf4af8de2",
        "size_in_bytes": 8913
      },
      {
        "_path": "share/doc/xz/examples/03_compress_custom.c",
        "path_type": "hardlink",
        "sha256": "914afd1e3494d9942ef752123f9743fa9427d5a82ca3e593794b9a4d9e390f42",
        "sha256_in_prefix": "914afd1e3494d9942ef752123f9743fa9427d5a82ca3e593794b9a4d9e390f42",
        "size_in_bytes": 5025
      },
      {
        "_path": "share/doc/xz/examples/04_compress_easy_mt.c",
        "path_type": "hardlink",
        "sha256": "80a5d7e1acd455ffb55bd1ca26f767789171293a231e6645ca991b83b954988c",
        "sha256_in_prefix": "80a5d7e1acd455ffb55bd1ca26f767789171293a231e6645ca991b83b954988c",
        "size_in_bytes": 5214
      },
      {
        "_path": "share/doc/xz/examples/Makefile",
        "path_type": "hardlink",
        "sha256": "c9ba8b33aa9a9730afbd6ae7e8f91c25b8238df46918ebb9071e48c7c7a10c08",
        "sha256_in_prefix": "c9ba8b33aa9a9730afbd6ae7e8f91c25b8238df46918ebb9071e48c7c7a10c08",
        "size_in_bytes": 353
      },
      {
        "_path": "share/doc/xz/examples_old/xz_pipe_comp.c",
        "path_type": "hardlink",
        "sha256": "fce7eefb9149c5f5a43869e07a4a576c1f2af4ca0aae6872bd7ca50ed8c85522",
        "sha256_in_prefix": "fce7eefb9149c5f5a43869e07a4a576c1f2af4ca0aae6872bd7ca50ed8c85522",
        "size_in_bytes": 3043
      },
      {
        "_path": "share/doc/xz/examples_old/xz_pipe_decomp.c",
        "path_type": "hardlink",
        "sha256": "5d157c3c397fffc3b0489e49ef1d396fcfe6153f134ec5ea44ef0acc7fe474aa",
        "sha256_in_prefix": "5d157c3c397fffc3b0489e49ef1d396fcfe6153f134ec5ea44ef0acc7fe474aa",
        "size_in_bytes": 3130
      },
      {
        "_path": "share/doc/xz/faq.txt",
        "path_type": "hardlink",
        "sha256": "97ea64c7578870443ff4669cd6dce43d94d857faa7cffef1aa462ff9c8089c07",
        "sha256_in_prefix": "97ea64c7578870443ff4669cd6dce43d94d857faa7cffef1aa462ff9c8089c07",
        "size_in_bytes": 10419
      },
      {
        "_path": "share/doc/xz/history.txt",
        "path_type": "hardlink",
        "sha256": "9d6a0a72822734a0afb1816e07f0a7edab03339119bed4f393c1c7eec884eab6",
        "sha256_in_prefix": "9d6a0a72822734a0afb1816e07f0a7edab03339119bed4f393c1c7eec884eab6",
        "size_in_bytes": 7427
      },
      {
        "_path": "share/doc/xz/lzma-file-format.txt",
        "path_type": "hardlink",
        "sha256": "beda7e9710f03003286d2e99c159e16e727e286e22da6a9bb311e493b80e2725",
        "sha256_in_prefix": "beda7e9710f03003286d2e99c159e16e727e286e22da6a9bb311e493b80e2725",
        "size_in_bytes": 6081
      },
      {
        "_path": "share/doc/xz/xz-file-format.txt",
        "path_type": "hardlink",
        "sha256": "5bc5f117a497b60e8919f5bb9471ad86fb66a973d536d6522cf629aaa2170fe5",
        "sha256_in_prefix": "5bc5f117a497b60e8919f5bb9471ad86fb66a973d536d6522cf629aaa2170fe5",
        "size_in_bytes": 44051
      },
      {
        "_path": "share/locale/ca/LC_MESSAGES/xz.mo",
        "path_type": "hardlink",
        "sha256": "2f244d9fac0937c4d7865b874ab36e1c7d3e71061495b8ec06dd8d7d2219643c",
        "sha256_in_prefix": "2f244d9fac0937c4d7865b874ab36e1c7d3e71061495b8ec06dd8d7d2219643c",
        "size_in_bytes": 26876
      },
      {
        "_path": "share/locale/cs/LC_MESSAGES/xz.mo",
        "path_type": "hardlink",
        "sha256": "4ac8767b12266c04bd36200fec8b64e3b1d5281d3ac1f161bf44b8de75783d47",
        "sha256_in_prefix": "4ac8767b12266c04bd36200fec8b64e3b1d5281d3ac1f161bf44b8de75783d47",
        "size_in_bytes": 17576
      },
      {
        "_path": "share/locale/da/LC_MESSAGES/xz.mo",
        "path_type": "hardlink",
        "sha256": "961aa5811f1ec10a579877dcb6ef9508a90bc3067b290ab42427674073686c60",
        "sha256_in_prefix": "961aa5811f1ec10a579877dcb6ef9508a90bc3067b290ab42427674073686c60",
        "size_in_bytes": 12015
      },
      {
        "_path": "share/locale/de/LC_MESSAGES/xz.mo",
        "path_type": "hardlink",
        "sha256": "2a57d40855467e089c31debcfe4dc8a9adcfa3125087b384c942feabb190ae72",
        "sha256_in_prefix": "2a57d40855467e089c31debcfe4dc8a9adcfa3125087b384c942feabb190ae72",
        "size_in_bytes": 28599
      },
      {
        "_path": "share/locale/eo/LC_MESSAGES/xz.mo",
        "path_type": "hardlink",
        "sha256": "dc7d9b45d89174e8be0eefd68f7f13badf5d763b5d0c614b5ce9285ffbaab388",
        "sha256_in_prefix": "dc7d9b45d89174e8be0eefd68f7f13badf5d763b5d0c614b5ce9285ffbaab388",
        "size_in_bytes": 26139
      },
      {
        "_path": "share/locale/es/LC_MESSAGES/xz.mo",
        "path_type": "hardlink",
        "sha256": "77dd837a5a507892c1e3ef9db99f9314302c9898629131ad1ff2f2cef62366b4",
        "sha256_in_prefix": "77dd837a5a507892c1e3ef9db99f9314302c9898629131ad1ff2f2cef62366b4",
        "size_in_bytes": 27192
      },
      {
        "_path": "share/locale/fi/LC_MESSAGES/xz.mo",
        "path_type": "hardlink",
        "sha256": "66bc551a2abca85979fcb8654092361dd46526e503984595f354f793cdfb2d03",
        "sha256_in_prefix": "66bc551a2abca85979fcb8654092361dd46526e503984595f354f793cdfb2d03",
        "size_in_bytes": 25923
      },
      {
        "_path": "share/locale/fr/LC_MESSAGES/xz.mo",
        "path_type": "hardlink",
        "sha256": "90c0704639b28eaf8f5c4b85e56a45308ee30e1cc9ed4ec67366dc788b52b44f",
        "sha256_in_prefix": "90c0704639b28eaf8f5c4b85e56a45308ee30e1cc9ed4ec67366dc788b52b44f",
        "size_in_bytes": 22307
      },
      {
        "_path": "share/locale/hr/LC_MESSAGES/xz.mo",
        "path_type": "hardlink",
        "sha256": "5997d3bca0736c69ad12720bd530fb9deede929b5051809cd5dbc960885dfc3e",
        "sha256_in_prefix": "5997d3bca0736c69ad12720bd530fb9deede929b5051809cd5dbc960885dfc3e",
        "size_in_bytes": 26682
      },
      {
        "_path": "share/locale/hu/LC_MESSAGES/xz.mo",
        "path_type": "hardlink",
        "sha256": "3784a2d8a8b5fefe3170ce5cc6a23bf566e9d45841ab1bfa7b989bddfc546948",
        "sha256_in_prefix": "3784a2d8a8b5fefe3170ce5cc6a23bf566e9d45841ab1bfa7b989bddfc546948",
        "size_in_bytes": 27374
      },
      {
        "_path": "share/locale/it/LC_MESSAGES/xz.mo",
        "path_type": "hardlink",
        "sha256": "b30599f6db89668d6c623708f1da871d03662772a53cc9c95ab26a91965b762c",
        "sha256_in_prefix": "b30599f6db89668d6c623708f1da871d03662772a53cc9c95ab26a91965b762c",
        "size_in_bytes": 22043
      },
      {
        "_path": "share/locale/ko/LC_MESSAGES/xz.mo",
        "path_type": "hardlink",
        "sha256": "5c700e3ee757c54599f6ec74744149f43724fcd4be15e2a3aa3301b37661fe97",
        "sha256_in_prefix": "5c700e3ee757c54599f6ec74744149f43724fcd4be15e2a3aa3301b37661fe97",
        "size_in_bytes": 27394
      },
      {
        "_path": "share/locale/pl/LC_MESSAGES/xz.mo",
        "path_type": "hardlink",
        "sha256": "61ab1ed81a1c1ace6c47690e8fc31a1584dd70ff4970d498d9955a0b30e03723",
        "sha256_in_prefix": "61ab1ed81a1c1ace6c47690e8fc31a1584dd70ff4970d498d9955a0b30e03723",
        "size_in_bytes": 26643
      },
      {
        "_path": "share/locale/pt/LC_MESSAGES/xz.mo",
        "path_type": "hardlink",
        "sha256": "842e5da37aa0076c6d29b9505e5e61f27ec41dc1ffdfd95fddc859fde90c03f0",
        "sha256_in_prefix": "842e5da37aa0076c6d29b9505e5e61f27ec41dc1ffdfd95fddc859fde90c03f0",
        "size_in_bytes": 21887
      },
      {
        "_path": "share/locale/pt_BR/LC_MESSAGES/xz.mo",
        "path_type": "hardlink",
        "sha256": "f80e93cf97d6f4311c78a5ce7961ace1d24017a2646e0a9f86be37e3c3986b99",
        "sha256_in_prefix": "f80e93cf97d6f4311c78a5ce7961ace1d24017a2646e0a9f86be37e3c3986b99",
        "size_in_bytes": 26890
      },
      {
        "_path": "share/locale/ro/LC_MESSAGES/xz.mo",
        "path_type": "hardlink",
        "sha256": "19c72325ba688e1cc2cce5395044df1ae8fc89febdd53d408f8818e8a642c960",
        "sha256_in_prefix": "19c72325ba688e1cc2cce5395044df1ae8fc89febdd53d408f8818e8a642c960",
        "size_in_bytes": 28538
      },
      {
        "_path": "share/locale/sr/LC_MESSAGES/xz.mo",
        "path_type": "hardlink",
        "sha256": "6d0af8d364ff5cdba714e3ebe2817e50eef4a4b5647bcd99429c944ad9f23bf0",
        "sha256_in_prefix": "6d0af8d364ff5cdba714e3ebe2817e50eef4a4b5647bcd99429c944ad9f23bf0",
        "size_in_bytes": 27551
      },
      {
        "_path": "share/locale/sv/LC_MESSAGES/xz.mo",
        "path_type": "hardlink",
        "sha256": "eeea067ad4df35e5a6bb801c7d8a277cd5b6a8ad75541bd97a9761a9026f83f2",
        "sha256_in_prefix": "eeea067ad4df35e5a6bb801c7d8a277cd5b6a8ad75541bd97a9761a9026f83f2",
        "size_in_bytes": 26576
      },
      {
        "_path": "share/locale/tr/LC_MESSAGES/xz.mo",
        "path_type": "hardlink",
        "sha256": "71f80a03218a639875bfb0d952394ad5809dc4c3d0c53f3c44df74eef5a7378f",
        "sha256_in_prefix": "71f80a03218a639875bfb0d952394ad5809dc4c3d0c53f3c44df74eef5a7378f",
        "size_in_bytes": 26545
      },
      {
        "_path": "share/locale/uk/LC_MESSAGES/xz.mo",
        "path_type": "hardlink",
        "sha256": "674af484444116a7112e39d03ebadd41238ecbdba2f2b6bca0b76fb8042bc671",
        "sha256_in_prefix": "674af484444116a7112e39d03ebadd41238ecbdba2f2b6bca0b76fb8042bc671",
        "size_in_bytes": 35322
      },
      {
        "_path": "share/locale/vi/LC_MESSAGES/xz.mo",
        "path_type": "hardlink",
        "sha256": "4b89379cf33b65badd365d733a9835a0191e7fbaf23fd728715bca7430f4719b",
        "sha256_in_prefix": "4b89379cf33b65badd365d733a9835a0191e7fbaf23fd728715bca7430f4719b",
        "size_in_bytes": 28619
      },
      {
        "_path": "share/locale/zh_CN/LC_MESSAGES/xz.mo",
        "path_type": "hardlink",
        "sha256": "57c6c94ac862c18a414a3262ffc6863fab71958dc9b2fcf4b4ebbaf30698d8b7",
        "sha256_in_prefix": "57c6c94ac862c18a414a3262ffc6863fab71958dc9b2fcf4b4ebbaf30698d8b7",
        "size_in_bytes": 25247
      },
      {
        "_path": "share/locale/zh_TW/LC_MESSAGES/xz.mo",
        "path_type": "hardlink",
        "sha256": "e9f325acf898880dfbd8c808d642f2b12d86ef1e811e00af4bdbeaee0334965e",
        "sha256_in_prefix": "e9f325acf898880dfbd8c808d642f2b12d86ef1e811e00af4bdbeaee0334965e",
        "size_in_bytes": 24823
      },
      {
        "_path": "share/man/de/man1/lzcat.1",
        "path_type": "softlink",
        "sha256": "bcadddec0b7889831bfd468ce73a07ebab084cfea0ad368e0548131544952036",
        "size_in_bytes": 86284
      },
      {
        "_path": "share/man/de/man1/lzcmp.1",
        "path_type": "softlink",
        "sha256": "937ec30fb3906baa985f0686da6ef790535aadbd81e0e8419c02a6e6b52431c2",
        "size_in_bytes": 2102
      },
      {
        "_path": "share/man/de/man1/lzdiff.1",
        "path_type": "softlink",
        "sha256": "937ec30fb3906baa985f0686da6ef790535aadbd81e0e8419c02a6e6b52431c2",
        "size_in_bytes": 2102
      },
      {
        "_path": "share/man/de/man1/lzegrep.1",
        "path_type": "softlink",
        "sha256": "c4077de07ac456d0cc10af54ca82f097d92c7269e2fc239cb4963edc0204fb75",
        "size_in_bytes": 2299
      },
      {
        "_path": "share/man/de/man1/lzfgrep.1",
        "path_type": "softlink",
        "sha256": "c4077de07ac456d0cc10af54ca82f097d92c7269e2fc239cb4963edc0204fb75",
        "size_in_bytes": 2299
      },
      {
        "_path": "share/man/de/man1/lzgrep.1",
        "path_type": "softlink",
        "sha256": "c4077de07ac456d0cc10af54ca82f097d92c7269e2fc239cb4963edc0204fb75",
        "size_in_bytes": 2299
      },
      {
        "_path": "share/man/de/man1/lzless.1",
        "path_type": "softlink",
        "sha256": "3bbb5787fa3e8cdcc6b8038e89bec24c46b6b5bbcdf1a2608c6e07ee0353658c",
        "size_in_bytes": 1870
      },
      {
        "_path": "share/man/de/man1/lzma.1",
        "path_type": "softlink",
        "sha256": "bcadddec0b7889831bfd468ce73a07ebab084cfea0ad368e0548131544952036",
        "size_in_bytes": 86284
      },
      {
        "_path": "share/man/de/man1/lzmadec.1",
        "path_type": "softlink",
        "sha256": "08889c7e15ff06fc0b87b819fd399f5acfea66501fbddf2e0af460accd1eef13",
        "size_in_bytes": 3756
      },
      {
        "_path": "share/man/de/man1/lzmore.1",
        "path_type": "softlink",
        "sha256": "e484edd83be36324516b7edb79ad6fa2e4745f0bc1eb23deb8530b5f63d44609",
        "size_in_bytes": 1529
      },
      {
        "_path": "share/man/de/man1/unlzma.1",
        "path_type": "softlink",
        "sha256": "bcadddec0b7889831bfd468ce73a07ebab084cfea0ad368e0548131544952036",
        "size_in_bytes": 86284
      },
      {
        "_path": "share/man/de/man1/unxz.1",
        "path_type": "softlink",
        "sha256": "bcadddec0b7889831bfd468ce73a07ebab084cfea0ad368e0548131544952036",
        "size_in_bytes": 86284
      },
      {
        "_path": "share/man/de/man1/xz.1",
        "path_type": "hardlink",
        "sha256": "bcadddec0b7889831bfd468ce73a07ebab084cfea0ad368e0548131544952036",
        "sha256_in_prefix": "bcadddec0b7889831bfd468ce73a07ebab084cfea0ad368e0548131544952036",
        "size_in_bytes": 86284
      },
      {
        "_path": "share/man/de/man1/xzcat.1",
        "path_type": "softlink",
        "sha256": "bcadddec0b7889831bfd468ce73a07ebab084cfea0ad368e0548131544952036",
        "size_in_bytes": 86284
      },
      {
        "_path": "share/man/de/man1/xzcmp.1",
        "path_type": "softlink",
        "sha256": "937ec30fb3906baa985f0686da6ef790535aadbd81e0e8419c02a6e6b52431c2",
        "size_in_bytes": 2102
      },
      {
        "_path": "share/man/de/man1/xzdec.1",
        "path_type": "hardlink",
        "sha256": "08889c7e15ff06fc0b87b819fd399f5acfea66501fbddf2e0af460accd1eef13",
        "sha256_in_prefix": "08889c7e15ff06fc0b87b819fd399f5acfea66501fbddf2e0af460accd1eef13",
        "size_in_bytes": 3756
      },
      {
        "_path": "share/man/de/man1/xzdiff.1",
        "path_type": "hardlink",
        "sha256": "937ec30fb3906baa985f0686da6ef790535aadbd81e0e8419c02a6e6b52431c2",
        "sha256_in_prefix": "937ec30fb3906baa985f0686da6ef790535aadbd81e0e8419c02a6e6b52431c2",
        "size_in_bytes": 2102
      },
      {
        "_path": "share/man/de/man1/xzegrep.1",
        "path_type": "softlink",
        "sha256": "c4077de07ac456d0cc10af54ca82f097d92c7269e2fc239cb4963edc0204fb75",
        "size_in_bytes": 2299
      },
      {
        "_path": "share/man/de/man1/xzfgrep.1",
        "path_type": "softlink",
        "sha256": "c4077de07ac456d0cc10af54ca82f097d92c7269e2fc239cb4963edc0204fb75",
        "size_in_bytes": 2299
      },
      {
        "_path": "share/man/de/man1/xzgrep.1",
        "path_type": "hardlink",
        "sha256": "c4077de07ac456d0cc10af54ca82f097d92c7269e2fc239cb4963edc0204fb75",
        "sha256_in_prefix": "c4077de07ac456d0cc10af54ca82f097d92c7269e2fc239cb4963edc0204fb75",
        "size_in_bytes": 2299
      },
      {
        "_path": "share/man/de/man1/xzless.1",
        "path_type": "hardlink",
        "sha256": "3bbb5787fa3e8cdcc6b8038e89bec24c46b6b5bbcdf1a2608c6e07ee0353658c",
        "sha256_in_prefix": "3bbb5787fa3e8cdcc6b8038e89bec24c46b6b5bbcdf1a2608c6e07ee0353658c",
        "size_in_bytes": 1870
      },
      {
        "_path": "share/man/de/man1/xzmore.1",
        "path_type": "hardlink",
        "sha256": "e484edd83be36324516b7edb79ad6fa2e4745f0bc1eb23deb8530b5f63d44609",
        "sha256_in_prefix": "e484edd83be36324516b7edb79ad6fa2e4745f0bc1eb23deb8530b5f63d44609",
        "size_in_bytes": 1529
      },
      {
        "_path": "share/man/fr/man1/lzcat.1",
        "path_type": "softlink",
        "sha256": "7d92b7d4ee4bbaeb59d56c336a700f693fa3d84e605e88ad13559b1ef3ea5f52",
        "size_in_bytes": 81360
      },
      {
        "_path": "share/man/fr/man1/lzcmp.1",
        "path_type": "softlink",
        "sha256": "06924063e7703c9e1a7c267a456b180f3ef98818fb83cf2e75ad7d9362481b35",
        "size_in_bytes": 1937
      },
      {
        "_path": "share/man/fr/man1/lzdiff.1",
        "path_type": "softlink",
        "sha256": "06924063e7703c9e1a7c267a456b180f3ef98818fb83cf2e75ad7d9362481b35",
        "size_in_bytes": 1937
      },
      {
        "_path": "share/man/fr/man1/lzless.1",
        "path_type": "softlink",
        "sha256": "a1de1f3460b1294fc77d95c52bffbbc4a211225b9cd6be2be82e20f5ddce77b8",
        "size_in_bytes": 1831
      },
      {
        "_path": "share/man/fr/man1/lzma.1",
        "path_type": "softlink",
        "sha256": "7d92b7d4ee4bbaeb59d56c336a700f693fa3d84e605e88ad13559b1ef3ea5f52",
        "size_in_bytes": 81360
      },
      {
        "_path": "share/man/fr/man1/lzmadec.1",
        "path_type": "softlink",
        "sha256": "428523e127c82599caf67ff3b7b91d2b950f98f2e71ec8190f24e03929a0555c",
        "size_in_bytes": 3562
      },
      {
        "_path": "share/man/fr/man1/lzmore.1",
        "path_type": "softlink",
        "sha256": "d5185c0e7a683162f17f1bd6aaad15bf77933fb288ed477ab9e80ec11176d0da",
        "size_in_bytes": 1603
      },
      {
        "_path": "share/man/fr/man1/unlzma.1",
        "path_type": "softlink",
        "sha256": "7d92b7d4ee4bbaeb59d56c336a700f693fa3d84e605e88ad13559b1ef3ea5f52",
        "size_in_bytes": 81360
      },
      {
        "_path": "share/man/fr/man1/unxz.1",
        "path_type": "softlink",
        "sha256": "7d92b7d4ee4bbaeb59d56c336a700f693fa3d84e605e88ad13559b1ef3ea5f52",
        "size_in_bytes": 81360
      },
      {
        "_path": "share/man/fr/man1/xz.1",
        "path_type": "hardlink",
        "sha256": "7d92b7d4ee4bbaeb59d56c336a700f693fa3d84e605e88ad13559b1ef3ea5f52",
        "sha256_in_prefix": "7d92b7d4ee4bbaeb59d56c336a700f693fa3d84e605e88ad13559b1ef3ea5f52",
        "size_in_bytes": 81360
      },
      {
        "_path": "share/man/fr/man1/xzcat.1",
        "path_type": "softlink",
        "sha256": "7d92b7d4ee4bbaeb59d56c336a700f693fa3d84e605e88ad13559b1ef3ea5f52",
        "size_in_bytes": 81360
      },
      {
        "_path": "share/man/fr/man1/xzcmp.1",
        "path_type": "softlink",
        "sha256": "06924063e7703c9e1a7c267a456b180f3ef98818fb83cf2e75ad7d9362481b35",
        "size_in_bytes": 1937
      },
      {
        "_path": "share/man/fr/man1/xzdec.1",
        "path_type": "hardlink",
        "sha256": "428523e127c82599caf67ff3b7b91d2b950f98f2e71ec8190f24e03929a0555c",
        "sha256_in_prefix": "428523e127c82599caf67ff3b7b91d2b950f98f2e71ec8190f24e03929a0555c",
        "size_in_bytes": 3562
      },
      {
        "_path": "share/man/fr/man1/xzdiff.1",
        "path_type": "hardlink",
        "sha256": "06924063e7703c9e1a7c267a456b180f3ef98818fb83cf2e75ad7d9362481b35",
        "sha256_in_prefix": "06924063e7703c9e1a7c267a456b180f3ef98818fb83cf2e75ad7d9362481b35",
        "size_in_bytes": 1937
      },
      {
        "_path": "share/man/fr/man1/xzless.1",
        "path_type": "hardlink",
        "sha256": "a1de1f3460b1294fc77d95c52bffbbc4a211225b9cd6be2be82e20f5ddce77b8",
        "sha256_in_prefix": "a1de1f3460b1294fc77d95c52bffbbc4a211225b9cd6be2be82e20f5ddce77b8",
        "size_in_bytes": 1831
      },
      {
        "_path": "share/man/fr/man1/xzmore.1",
        "path_type": "hardlink",
        "sha256": "d5185c0e7a683162f17f1bd6aaad15bf77933fb288ed477ab9e80ec11176d0da",
        "sha256_in_prefix": "d5185c0e7a683162f17f1bd6aaad15bf77933fb288ed477ab9e80ec11176d0da",
        "size_in_bytes": 1603
      },
      {
        "_path": "share/man/ko/man1/lzcat.1",
        "path_type": "softlink",
        "sha256": "78d04c814be756c9514e09ef31e5b1c87cf543324fdb322a0b6dbffe5e8b0f2d",
        "size_in_bytes": 85625
      },
      {
        "_path": "share/man/ko/man1/lzcmp.1",
        "path_type": "softlink",
        "sha256": "e1324f991b18f9d082ed2761482405052b48caba16be741401d99d82e0e4c471",
        "size_in_bytes": 2080
      },
      {
        "_path": "share/man/ko/man1/lzdiff.1",
        "path_type": "softlink",
        "sha256": "e1324f991b18f9d082ed2761482405052b48caba16be741401d99d82e0e4c471",
        "size_in_bytes": 2080
      },
      {
        "_path": "share/man/ko/man1/lzegrep.1",
        "path_type": "softlink",
        "sha256": "352dfdaea8260990a0849ec6a43d3911bf2a20061acb99ce0b37220480c4de16",
        "size_in_bytes": 2290
      },
      {
        "_path": "share/man/ko/man1/lzfgrep.1",
        "path_type": "softlink",
        "sha256": "352dfdaea8260990a0849ec6a43d3911bf2a20061acb99ce0b37220480c4de16",
        "size_in_bytes": 2290
      },
      {
        "_path": "share/man/ko/man1/lzgrep.1",
        "path_type": "softlink",
        "sha256": "352dfdaea8260990a0849ec6a43d3911bf2a20061acb99ce0b37220480c4de16",
        "size_in_bytes": 2290
      },
      {
        "_path": "share/man/ko/man1/lzless.1",
        "path_type": "softlink",
        "sha256": "916e051860e75b1b9bc3c7db9b9c9134f9df2e88870b930a5a1a3c9e64047f0d",
        "size_in_bytes": 1852
      },
      {
        "_path": "share/man/ko/man1/lzma.1",
        "path_type": "softlink",
        "sha256": "78d04c814be756c9514e09ef31e5b1c87cf543324fdb322a0b6dbffe5e8b0f2d",
        "size_in_bytes": 85625
      },
      {
        "_path": "share/man/ko/man1/lzmadec.1",
        "path_type": "softlink",
        "sha256": "c6b8c32b03bfb87e64ac5edd1f7eea9bf2d090cc7bcee9c2f75283af966a19dd",
        "size_in_bytes": 3944
      },
      {
        "_path": "share/man/ko/man1/lzmore.1",
        "path_type": "softlink",
        "sha256": "061d4fda730b44be2473c067f7f12f4b6006e1acc663340558b1eadca16b7c3b",
        "size_in_bytes": 1629
      },
      {
        "_path": "share/man/ko/man1/unlzma.1",
        "path_type": "softlink",
        "sha256": "78d04c814be756c9514e09ef31e5b1c87cf543324fdb322a0b6dbffe5e8b0f2d",
        "size_in_bytes": 85625
      },
      {
        "_path": "share/man/ko/man1/unxz.1",
        "path_type": "softlink",
        "sha256": "78d04c814be756c9514e09ef31e5b1c87cf543324fdb322a0b6dbffe5e8b0f2d",
        "size_in_bytes": 85625
      },
      {
        "_path": "share/man/ko/man1/xz.1",
        "path_type": "hardlink",
        "sha256": "78d04c814be756c9514e09ef31e5b1c87cf543324fdb322a0b6dbffe5e8b0f2d",
        "sha256_in_prefix": "78d04c814be756c9514e09ef31e5b1c87cf543324fdb322a0b6dbffe5e8b0f2d",
        "size_in_bytes": 85625
      },
      {
        "_path": "share/man/ko/man1/xzcat.1",
        "path_type": "softlink",
        "sha256": "78d04c814be756c9514e09ef31e5b1c87cf543324fdb322a0b6dbffe5e8b0f2d",
        "size_in_bytes": 85625
      },
      {
        "_path": "share/man/ko/man1/xzcmp.1",
        "path_type": "softlink",
        "sha256": "e1324f991b18f9d082ed2761482405052b48caba16be741401d99d82e0e4c471",
        "size_in_bytes": 2080
      },
      {
        "_path": "share/man/ko/man1/xzdec.1",
        "path_type": "hardlink",
        "sha256": "c6b8c32b03bfb87e64ac5edd1f7eea9bf2d090cc7bcee9c2f75283af966a19dd",
        "sha256_in_prefix": "c6b8c32b03bfb87e64ac5edd1f7eea9bf2d090cc7bcee9c2f75283af966a19dd",
        "size_in_bytes": 3944
      },
      {
        "_path": "share/man/ko/man1/xzdiff.1",
        "path_type": "hardlink",
        "sha256": "e1324f991b18f9d082ed2761482405052b48caba16be741401d99d82e0e4c471",
        "sha256_in_prefix": "e1324f991b18f9d082ed2761482405052b48caba16be741401d99d82e0e4c471",
        "size_in_bytes": 2080
      },
      {
        "_path": "share/man/ko/man1/xzegrep.1",
        "path_type": "softlink",
        "sha256": "352dfdaea8260990a0849ec6a43d3911bf2a20061acb99ce0b37220480c4de16",
        "size_in_bytes": 2290
      },
      {
        "_path": "share/man/ko/man1/xzfgrep.1",
        "path_type": "softlink",
        "sha256": "352dfdaea8260990a0849ec6a43d3911bf2a20061acb99ce0b37220480c4de16",
        "size_in_bytes": 2290
      },
      {
        "_path": "share/man/ko/man1/xzgrep.1",
        "path_type": "hardlink",
        "sha256": "352dfdaea8260990a0849ec6a43d3911bf2a20061acb99ce0b37220480c4de16",
        "sha256_in_prefix": "352dfdaea8260990a0849ec6a43d3911bf2a20061acb99ce0b37220480c4de16",
        "size_in_bytes": 2290
      },
      {
        "_path": "share/man/ko/man1/xzless.1",
        "path_type": "hardlink",
        "sha256": "916e051860e75b1b9bc3c7db9b9c9134f9df2e88870b930a5a1a3c9e64047f0d",
        "sha256_in_prefix": "916e051860e75b1b9bc3c7db9b9c9134f9df2e88870b930a5a1a3c9e64047f0d",
        "size_in_bytes": 1852
      },
      {
        "_path": "share/man/ko/man1/xzmore.1",
        "path_type": "hardlink",
        "sha256": "061d4fda730b44be2473c067f7f12f4b6006e1acc663340558b1eadca16b7c3b",
        "sha256_in_prefix": "061d4fda730b44be2473c067f7f12f4b6006e1acc663340558b1eadca16b7c3b",
        "size_in_bytes": 1629
      },
      {
        "_path": "share/man/man1/lzcat.1",
        "path_type": "softlink",
        "sha256": "b8611c7093fe5f12b4b3310ee5314bc943b3a24565f86c1732aef53a74af71c1",
        "size_in_bytes": 70097
      },
      {
        "_path": "share/man/man1/lzcmp.1",
        "path_type": "softlink",
        "sha256": "92d4741fa9175236861130b25b4aaf827c28c9e96dabc93bfc0cf3f47f799504",
        "size_in_bytes": 1556
      },
      {
        "_path": "share/man/man1/lzdiff.1",
        "path_type": "softlink",
        "sha256": "92d4741fa9175236861130b25b4aaf827c28c9e96dabc93bfc0cf3f47f799504",
        "size_in_bytes": 1556
      },
      {
        "_path": "share/man/man1/lzegrep.1",
        "path_type": "softlink",
        "sha256": "25dbf88e1daaf43e360f27f45df7fe0110748bef0ee5b00c5ec6b9d0a0a6b38e",
        "size_in_bytes": 1777
      },
      {
        "_path": "share/man/man1/lzfgrep.1",
        "path_type": "softlink",
        "sha256": "25dbf88e1daaf43e360f27f45df7fe0110748bef0ee5b00c5ec6b9d0a0a6b38e",
        "size_in_bytes": 1777
      },
      {
        "_path": "share/man/man1/lzgrep.1",
        "path_type": "softlink",
        "sha256": "25dbf88e1daaf43e360f27f45df7fe0110748bef0ee5b00c5ec6b9d0a0a6b38e",
        "size_in_bytes": 1777
      },
      {
        "_path": "share/man/man1/lzless.1",
        "path_type": "softlink",
        "sha256": "2db6570b6f62b6f0d46fecfc18ead93000abaec97399514b31e18edb7ab2fecb",
        "size_in_bytes": 1360
      },
      {
        "_path": "share/man/man1/lzma.1",
        "path_type": "softlink",
        "sha256": "b8611c7093fe5f12b4b3310ee5314bc943b3a24565f86c1732aef53a74af71c1",
        "size_in_bytes": 70097
      },
      {
        "_path": "share/man/man1/lzmadec.1",
        "path_type": "softlink",
        "sha256": "20e56b65af31a9488483f01659c681de022da370d36a427b232246e4eb39bb6f",
        "size_in_bytes": 2838
      },
      {
        "_path": "share/man/man1/lzmainfo.1",
        "path_type": "hardlink",
        "sha256": "0963a1fe3e0539f036aaa9adf5bb179df10f2abe5f7f470c87340a5619e5f500",
        "sha256_in_prefix": "0963a1fe3e0539f036aaa9adf5bb179df10f2abe5f7f470c87340a5619e5f500",
        "size_in_bytes": 1250
      },
      {
        "_path": "share/man/man1/lzmore.1",
        "path_type": "softlink",
        "sha256": "551a2a7f6e2e5626b0cee4580a0107d81410afd742da25001c846b4fa7645b07",
        "size_in_bytes": 1153
      },
      {
        "_path": "share/man/man1/unlzma.1",
        "path_type": "softlink",
        "sha256": "b8611c7093fe5f12b4b3310ee5314bc943b3a24565f86c1732aef53a74af71c1",
        "size_in_bytes": 70097
      },
      {
        "_path": "share/man/man1/unxz.1",
        "path_type": "softlink",
        "sha256": "b8611c7093fe5f12b4b3310ee5314bc943b3a24565f86c1732aef53a74af71c1",
        "size_in_bytes": 70097
      },
      {
        "_path": "share/man/man1/xz.1",
        "path_type": "hardlink",
        "sha256": "b8611c7093fe5f12b4b3310ee5314bc943b3a24565f86c1732aef53a74af71c1",
        "sha256_in_prefix": "b8611c7093fe5f12b4b3310ee5314bc943b3a24565f86c1732aef53a74af71c1",
        "size_in_bytes": 70097
      },
      {
        "_path": "share/man/man1/xzcat.1",
        "path_type": "softlink",
        "sha256": "b8611c7093fe5f12b4b3310ee5314bc943b3a24565f86c1732aef53a74af71c1",
        "size_in_bytes": 70097
      },
      {
        "_path": "share/man/man1/xzcmp.1",
        "path_type": "softlink",
        "sha256": "92d4741fa9175236861130b25b4aaf827c28c9e96dabc93bfc0cf3f47f799504",
        "size_in_bytes": 1556
      },
      {
        "_path": "share/man/man1/xzdec.1",
        "path_type": "hardlink",
        "sha256": "20e56b65af31a9488483f01659c681de022da370d36a427b232246e4eb39bb6f",
        "sha256_in_prefix": "20e56b65af31a9488483f01659c681de022da370d36a427b232246e4eb39bb6f",
        "size_in_bytes": 2838
      },
      {
        "_path": "share/man/man1/xzdiff.1",
        "path_type": "hardlink",
        "sha256": "92d4741fa9175236861130b25b4aaf827c28c9e96dabc93bfc0cf3f47f799504",
        "sha256_in_prefix": "92d4741fa9175236861130b25b4aaf827c28c9e96dabc93bfc0cf3f47f799504",
        "size_in_bytes": 1556
      },
      {
        "_path": "share/man/man1/xzegrep.1",
        "path_type": "softlink",
        "sha256": "25dbf88e1daaf43e360f27f45df7fe0110748bef0ee5b00c5ec6b9d0a0a6b38e",
        "size_in_bytes": 1777
      },
      {
        "_path": "share/man/man1/xzfgrep.1",
        "path_type": "softlink",
        "sha256": "25dbf88e1daaf43e360f27f45df7fe0110748bef0ee5b00c5ec6b9d0a0a6b38e",
        "size_in_bytes": 1777
      },
      {
        "_path": "share/man/man1/xzgrep.1",
        "path_type": "hardlink",
        "sha256": "25dbf88e1daaf43e360f27f45df7fe0110748bef0ee5b00c5ec6b9d0a0a6b38e",
        "sha256_in_prefix": "25dbf88e1daaf43e360f27f45df7fe0110748bef0ee5b00c5ec6b9d0a0a6b38e",
        "size_in_bytes": 1777
      },
      {
        "_path": "share/man/man1/xzless.1",
        "path_type": "hardlink",
        "sha256": "2db6570b6f62b6f0d46fecfc18ead93000abaec97399514b31e18edb7ab2fecb",
        "sha256_in_prefix": "2db6570b6f62b6f0d46fecfc18ead93000abaec97399514b31e18edb7ab2fecb",
        "size_in_bytes": 1360
      },
      {
        "_path": "share/man/man1/xzmore.1",
        "path_type": "hardlink",
        "sha256": "551a2a7f6e2e5626b0cee4580a0107d81410afd742da25001c846b4fa7645b07",
        "sha256_in_prefix": "551a2a7f6e2e5626b0cee4580a0107d81410afd742da25001c846b4fa7645b07",
        "size_in_bytes": 1153
      },
      {
        "_path": "share/man/pt_BR/man1/lzcat.1",
        "path_type": "softlink",
        "sha256": "2865f4581fe1285e3501418f53cc3695e22961de95f5e6ac319745d5a5592004",
        "size_in_bytes": 79896
      },
      {
        "_path": "share/man/pt_BR/man1/lzcmp.1",
        "path_type": "softlink",
        "sha256": "77d0092e2ddbb1453b129b62ee35a5a4ed54b9694cc137c3c1181ecad789b034",
        "size_in_bytes": 1992
      },
      {
        "_path": "share/man/pt_BR/man1/lzdiff.1",
        "path_type": "softlink",
        "sha256": "77d0092e2ddbb1453b129b62ee35a5a4ed54b9694cc137c3c1181ecad789b034",
        "size_in_bytes": 1992
      },
      {
        "_path": "share/man/pt_BR/man1/lzegrep.1",
        "path_type": "softlink",
        "sha256": "3d649086acdc4328a9b9601f0dac406a8d579ba15af8f7a1698e1e13d1f59efc",
        "size_in_bytes": 2219
      },
      {
        "_path": "share/man/pt_BR/man1/lzfgrep.1",
        "path_type": "softlink",
        "sha256": "3d649086acdc4328a9b9601f0dac406a8d579ba15af8f7a1698e1e13d1f59efc",
        "size_in_bytes": 2219
      },
      {
        "_path": "share/man/pt_BR/man1/lzgrep.1",
        "path_type": "softlink",
        "sha256": "3d649086acdc4328a9b9601f0dac406a8d579ba15af8f7a1698e1e13d1f59efc",
        "size_in_bytes": 2219
      },
      {
        "_path": "share/man/pt_BR/man1/lzless.1",
        "path_type": "softlink",
        "sha256": "4c52c1891af9e62a981c5c68c3c367753952f162784185a02249fe12cd99c984",
        "size_in_bytes": 1760
      },
      {
        "_path": "share/man/pt_BR/man1/lzma.1",
        "path_type": "softlink",
        "sha256": "2865f4581fe1285e3501418f53cc3695e22961de95f5e6ac319745d5a5592004",
        "size_in_bytes": 79896
      },
      {
        "_path": "share/man/pt_BR/man1/lzmadec.1",
        "path_type": "softlink",
        "sha256": "3e18e7a62039b5c3cca9a5fbd632760ebf23968e25a8c9a7524d3cddbee77bb5",
        "size_in_bytes": 3424
      },
      {
        "_path": "share/man/pt_BR/man1/lzmore.1",
        "path_type": "softlink",
        "sha256": "2a14bbfe7e881d8b56082f6914be7dfd50e8298e2c974f584db5d3885766e663",
        "size_in_bytes": 1510
      },
      {
        "_path": "share/man/pt_BR/man1/unlzma.1",
        "path_type": "softlink",
        "sha256": "2865f4581fe1285e3501418f53cc3695e22961de95f5e6ac319745d5a5592004",
        "size_in_bytes": 79896
      },
      {
        "_path": "share/man/pt_BR/man1/unxz.1",
        "path_type": "softlink",
        "sha256": "2865f4581fe1285e3501418f53cc3695e22961de95f5e6ac319745d5a5592004",
        "size_in_bytes": 79896
      },
      {
        "_path": "share/man/pt_BR/man1/xz.1",
        "path_type": "hardlink",
        "sha256": "2865f4581fe1285e3501418f53cc3695e22961de95f5e6ac319745d5a5592004",
        "sha256_in_prefix": "2865f4581fe1285e3501418f53cc3695e22961de95f5e6ac319745d5a5592004",
        "size_in_bytes": 79896
      },
      {
        "_path": "share/man/pt_BR/man1/xzcat.1",
        "path_type": "softlink",
        "sha256": "2865f4581fe1285e3501418f53cc3695e22961de95f5e6ac319745d5a5592004",
        "size_in_bytes": 79896
      },
      {
        "_path": "share/man/pt_BR/man1/xzcmp.1",
        "path_type": "softlink",
        "sha256": "77d0092e2ddbb1453b129b62ee35a5a4ed54b9694cc137c3c1181ecad789b034",
        "size_in_bytes": 1992
      },
      {
        "_path": "share/man/pt_BR/man1/xzdec.1",
        "path_type": "hardlink",
        "sha256": "3e18e7a62039b5c3cca9a5fbd632760ebf23968e25a8c9a7524d3cddbee77bb5",
        "sha256_in_prefix": "3e18e7a62039b5c3cca9a5fbd632760ebf23968e25a8c9a7524d3cddbee77bb5",
        "size_in_bytes": 3424
      },
      {
        "_path": "share/man/pt_BR/man1/xzdiff.1",
        "path_type": "hardlink",
        "sha256": "77d0092e2ddbb1453b129b62ee35a5a4ed54b9694cc137c3c1181ecad789b034",
        "sha256_in_prefix": "77d0092e2ddbb1453b129b62ee35a5a4ed54b9694cc137c3c1181ecad789b034",
        "size_in_bytes": 1992
      },
      {
        "_path": "share/man/pt_BR/man1/xzegrep.1",
        "path_type": "softlink",
        "sha256": "3d649086acdc4328a9b9601f0dac406a8d579ba15af8f7a1698e1e13d1f59efc",
        "size_in_bytes": 2219
      },
      {
        "_path": "share/man/pt_BR/man1/xzfgrep.1",
        "path_type": "softlink",
        "sha256": "3d649086acdc4328a9b9601f0dac406a8d579ba15af8f7a1698e1e13d1f59efc",
        "size_in_bytes": 2219
      },
      {
        "_path": "share/man/pt_BR/man1/xzgrep.1",
        "path_type": "hardlink",
        "sha256": "3d649086acdc4328a9b9601f0dac406a8d579ba15af8f7a1698e1e13d1f59efc",
        "sha256_in_prefix": "3d649086acdc4328a9b9601f0dac406a8d579ba15af8f7a1698e1e13d1f59efc",
        "size_in_bytes": 2219
      },
      {
        "_path": "share/man/pt_BR/man1/xzless.1",
        "path_type": "hardlink",
        "sha256": "4c52c1891af9e62a981c5c68c3c367753952f162784185a02249fe12cd99c984",
        "sha256_in_prefix": "4c52c1891af9e62a981c5c68c3c367753952f162784185a02249fe12cd99c984",
        "size_in_bytes": 1760
      },
      {
        "_path": "share/man/pt_BR/man1/xzmore.1",
        "path_type": "hardlink",
        "sha256": "2a14bbfe7e881d8b56082f6914be7dfd50e8298e2c974f584db5d3885766e663",
        "sha256_in_prefix": "2a14bbfe7e881d8b56082f6914be7dfd50e8298e2c974f584db5d3885766e663",
        "size_in_bytes": 1510
      },
      {
        "_path": "share/man/ro/man1/lzcat.1",
        "path_type": "softlink",
        "sha256": "9897b377c4edc1618893daabf9db6f9f9d7d09bcbf85fc642debb5a175cc2e86",
        "size_in_bytes": 86852
      },
      {
        "_path": "share/man/ro/man1/lzcmp.1",
        "path_type": "softlink",
        "sha256": "e165196870635b54bd944c1695b4923d34ddb87e818c6323f3efdd6ccad819ac",
        "size_in_bytes": 2042
      },
      {
        "_path": "share/man/ro/man1/lzdiff.1",
        "path_type": "softlink",
        "sha256": "e165196870635b54bd944c1695b4923d34ddb87e818c6323f3efdd6ccad819ac",
        "size_in_bytes": 2042
      },
      {
        "_path": "share/man/ro/man1/lzegrep.1",
        "path_type": "softlink",
        "sha256": "277e70471eee24c2329709ede13a9ae9e23eaab5424ca68c0fb2a45c67ed8782",
        "size_in_bytes": 2276
      },
      {
        "_path": "share/man/ro/man1/lzfgrep.1",
        "path_type": "softlink",
        "sha256": "277e70471eee24c2329709ede13a9ae9e23eaab5424ca68c0fb2a45c67ed8782",
        "size_in_bytes": 2276
      },
      {
        "_path": "share/man/ro/man1/lzgrep.1",
        "path_type": "softlink",
        "sha256": "277e70471eee24c2329709ede13a9ae9e23eaab5424ca68c0fb2a45c67ed8782",
        "size_in_bytes": 2276
      },
      {
        "_path": "share/man/ro/man1/lzless.1",
        "path_type": "softlink",
        "sha256": "76c83689c1c4ff72d70ea32b918b4e694c30d8b8ed4914b6113f3547b1596593",
        "size_in_bytes": 1851
      },
      {
        "_path": "share/man/ro/man1/lzma.1",
        "path_type": "softlink",
        "sha256": "9897b377c4edc1618893daabf9db6f9f9d7d09bcbf85fc642debb5a175cc2e86",
        "size_in_bytes": 86852
      },
      {
        "_path": "share/man/ro/man1/lzmadec.1",
        "path_type": "softlink",
        "sha256": "f83b33d2b5ba7420960be466841ef5df2927434575a57eed78e9b5f8e93d4c38",
        "size_in_bytes": 3783
      },
      {
        "_path": "share/man/ro/man1/lzmore.1",
        "path_type": "softlink",
        "sha256": "c4812200c118ae4905a9687ea72809f7fa976d0f68e4dd6e5017c823f5eaf27f",
        "size_in_bytes": 1572
      },
      {
        "_path": "share/man/ro/man1/unlzma.1",
        "path_type": "softlink",
        "sha256": "9897b377c4edc1618893daabf9db6f9f9d7d09bcbf85fc642debb5a175cc2e86",
        "size_in_bytes": 86852
      },
      {
        "_path": "share/man/ro/man1/unxz.1",
        "path_type": "softlink",
        "sha256": "9897b377c4edc1618893daabf9db6f9f9d7d09bcbf85fc642debb5a175cc2e86",
        "size_in_bytes": 86852
      },
      {
        "_path": "share/man/ro/man1/xz.1",
        "path_type": "hardlink",
        "sha256": "9897b377c4edc1618893daabf9db6f9f9d7d09bcbf85fc642debb5a175cc2e86",
        "sha256_in_prefix": "9897b377c4edc1618893daabf9db6f9f9d7d09bcbf85fc642debb5a175cc2e86",
        "size_in_bytes": 86852
      },
      {
        "_path": "share/man/ro/man1/xzcat.1",
        "path_type": "softlink",
        "sha256": "9897b377c4edc1618893daabf9db6f9f9d7d09bcbf85fc642debb5a175cc2e86",
        "size_in_bytes": 86852
      },
      {
        "_path": "share/man/ro/man1/xzcmp.1",
        "path_type": "softlink",
        "sha256": "e165196870635b54bd944c1695b4923d34ddb87e818c6323f3efdd6ccad819ac",
        "size_in_bytes": 2042
      },
      {
        "_path": "share/man/ro/man1/xzdec.1",
        "path_type": "hardlink",
        "sha256": "f83b33d2b5ba7420960be466841ef5df2927434575a57eed78e9b5f8e93d4c38",
        "sha256_in_prefix": "f83b33d2b5ba7420960be466841ef5df2927434575a57eed78e9b5f8e93d4c38",
        "size_in_bytes": 3783
      },
      {
        "_path": "share/man/ro/man1/xzdiff.1",
        "path_type": "hardlink",
        "sha256": "e165196870635b54bd944c1695b4923d34ddb87e818c6323f3efdd6ccad819ac",
        "sha256_in_prefix": "e165196870635b54bd944c1695b4923d34ddb87e818c6323f3efdd6ccad819ac",
        "size_in_bytes": 2042
      },
      {
        "_path": "share/man/ro/man1/xzegrep.1",
        "path_type": "softlink",
        "sha256": "277e70471eee24c2329709ede13a9ae9e23eaab5424ca68c0fb2a45c67ed8782",
        "size_in_bytes": 2276
      },
      {
        "_path": "share/man/ro/man1/xzfgrep.1",
        "path_type": "softlink",
        "sha256": "277e70471eee24c2329709ede13a9ae9e23eaab5424ca68c0fb2a45c67ed8782",
        "size_in_bytes": 2276
      },
      {
        "_path": "share/man/ro/man1/xzgrep.1",
        "path_type": "hardlink",
        "sha256": "277e70471eee24c2329709ede13a9ae9e23eaab5424ca68c0fb2a45c67ed8782",
        "sha256_in_prefix": "277e70471eee24c2329709ede13a9ae9e23eaab5424ca68c0fb2a45c67ed8782",
        "size_in_bytes": 2276
      },
      {
        "_path": "share/man/ro/man1/xzless.1",
        "path_type": "hardlink",
        "sha256": "76c83689c1c4ff72d70ea32b918b4e694c30d8b8ed4914b6113f3547b1596593",
        "sha256_in_prefix": "76c83689c1c4ff72d70ea32b918b4e694c30d8b8ed4914b6113f3547b1596593",
        "size_in_bytes": 1851
      },
      {
        "_path": "share/man/ro/man1/xzmore.1",
        "path_type": "hardlink",
        "sha256": "c4812200c118ae4905a9687ea72809f7fa976d0f68e4dd6e5017c823f5eaf27f",
        "sha256_in_prefix": "c4812200c118ae4905a9687ea72809f7fa976d0f68e4dd6e5017c823f5eaf27f",
        "size_in_bytes": 1572
      },
      {
        "_path": "share/man/uk/man1/lzcat.1",
        "path_type": "softlink",
        "sha256": "32b00b84352bba08989943d332080449b936cdee62503aaafdd17f1ff97758c8",
        "size_in_bytes": 131679
      },
      {
        "_path": "share/man/uk/man1/lzcmp.1",
        "path_type": "softlink",
        "sha256": "31f4cf90f6fb49d57bbeff90c25a7eb7bd271cf7c1f7c15fffc8fdee937675c1",
        "size_in_bytes": 2587
      },
      {
        "_path": "share/man/uk/man1/lzdiff.1",
        "path_type": "softlink",
        "sha256": "31f4cf90f6fb49d57bbeff90c25a7eb7bd271cf7c1f7c15fffc8fdee937675c1",
        "size_in_bytes": 2587
      },
      {
        "_path": "share/man/uk/man1/lzegrep.1",
        "path_type": "softlink",
        "sha256": "4a0f75dffebe448eb40a88f84f977e267a09a74fb2a1175de74dc4e2095565e3",
        "size_in_bytes": 3059
      },
      {
        "_path": "share/man/uk/man1/lzfgrep.1",
        "path_type": "softlink",
        "sha256": "4a0f75dffebe448eb40a88f84f977e267a09a74fb2a1175de74dc4e2095565e3",
        "size_in_bytes": 3059
      },
      {
        "_path": "share/man/uk/man1/lzgrep.1",
        "path_type": "softlink",
        "sha256": "4a0f75dffebe448eb40a88f84f977e267a09a74fb2a1175de74dc4e2095565e3",
        "size_in_bytes": 3059
      },
      {
        "_path": "share/man/uk/man1/lzless.1",
        "path_type": "softlink",
        "sha256": "ec810d0ca82146dfff4c8b592b5d80b277a8de0cbef434b9b909bfeb25ea1bec",
        "size_in_bytes": 2513
      },
      {
        "_path": "share/man/uk/man1/lzma.1",
        "path_type": "softlink",
        "sha256": "32b00b84352bba08989943d332080449b936cdee62503aaafdd17f1ff97758c8",
        "size_in_bytes": 131679
      },
      {
        "_path": "share/man/uk/man1/lzmadec.1",
        "path_type": "softlink",
        "sha256": "581c92d65b53ce2bd26a4a9e2978337a31fcbbc66b07531e081578288e799f9e",
        "size_in_bytes": 5253
      },
      {
        "_path": "share/man/uk/man1/lzmore.1",
        "path_type": "softlink",
        "sha256": "514b81cea8ddb8ee9e63b9e443dfd89c77b382d9441ede63681db40c53b6db97",
        "size_in_bytes": 2220
      },
      {
        "_path": "share/man/uk/man1/unlzma.1",
        "path_type": "softlink",
        "sha256": "32b00b84352bba08989943d332080449b936cdee62503aaafdd17f1ff97758c8",
        "size_in_bytes": 131679
      },
      {
        "_path": "share/man/uk/man1/unxz.1",
        "path_type": "softlink",
        "sha256": "32b00b84352bba08989943d332080449b936cdee62503aaafdd17f1ff97758c8",
        "size_in_bytes": 131679
      },
      {
        "_path": "share/man/uk/man1/xz.1",
        "path_type": "hardlink",
        "sha256": "32b00b84352bba08989943d332080449b936cdee62503aaafdd17f1ff97758c8",
        "sha256_in_prefix": "32b00b84352bba08989943d332080449b936cdee62503aaafdd17f1ff97758c8",
        "size_in_bytes": 131679
      },
      {
        "_path": "share/man/uk/man1/xzcat.1",
        "path_type": "softlink",
        "sha256": "32b00b84352bba08989943d332080449b936cdee62503aaafdd17f1ff97758c8",
        "size_in_bytes": 131679
      },
      {
        "_path": "share/man/uk/man1/xzcmp.1",
        "path_type": "softlink",
        "sha256": "31f4cf90f6fb49d57bbeff90c25a7eb7bd271cf7c1f7c15fffc8fdee937675c1",
        "size_in_bytes": 2587
      },
      {
        "_path": "share/man/uk/man1/xzdec.1",
        "path_type": "hardlink",
        "sha256": "581c92d65b53ce2bd26a4a9e2978337a31fcbbc66b07531e081578288e799f9e",
        "sha256_in_prefix": "581c92d65b53ce2bd26a4a9e2978337a31fcbbc66b07531e081578288e799f9e",
        "size_in_bytes": 5253
      },
      {
        "_path": "share/man/uk/man1/xzdiff.1",
        "path_type": "hardlink",
        "sha256": "31f4cf90f6fb49d57bbeff90c25a7eb7bd271cf7c1f7c15fffc8fdee937675c1",
        "sha256_in_prefix": "31f4cf90f6fb49d57bbeff90c25a7eb7bd271cf7c1f7c15fffc8fdee937675c1",
        "size_in_bytes": 2587
      },
      {
        "_path": "share/man/uk/man1/xzegrep.1",
        "path_type": "softlink",
        "sha256": "4a0f75dffebe448eb40a88f84f977e267a09a74fb2a1175de74dc4e2095565e3",
        "size_in_bytes": 3059
      },
      {
        "_path": "share/man/uk/man1/xzfgrep.1",
        "path_type": "softlink",
        "sha256": "4a0f75dffebe448eb40a88f84f977e267a09a74fb2a1175de74dc4e2095565e3",
        "size_in_bytes": 3059
      },
      {
        "_path": "share/man/uk/man1/xzgrep.1",
        "path_type": "hardlink",
        "sha256": "4a0f75dffebe448eb40a88f84f977e267a09a74fb2a1175de74dc4e2095565e3",
        "sha256_in_prefix": "4a0f75dffebe448eb40a88f84f977e267a09a74fb2a1175de74dc4e2095565e3",
        "size_in_bytes": 3059
      },
      {
        "_path": "share/man/uk/man1/xzless.1",
        "path_type": "hardlink",
        "sha256": "ec810d0ca82146dfff4c8b592b5d80b277a8de0cbef434b9b909bfeb25ea1bec",
        "sha256_in_prefix": "ec810d0ca82146dfff4c8b592b5d80b277a8de0cbef434b9b909bfeb25ea1bec",
        "size_in_bytes": 2513
      },
      {
        "_path": "share/man/uk/man1/xzmore.1",
        "path_type": "hardlink",
        "sha256": "514b81cea8ddb8ee9e63b9e443dfd89c77b382d9441ede63681db40c53b6db97",
        "sha256_in_prefix": "514b81cea8ddb8ee9e63b9e443dfd89c77b382d9441ede63681db40c53b6db97",
        "size_in_bytes": 2220
      }
    ],
    "paths_version": 1
  },
  "requested_spec": "None",
  "sha256": "5e3e2ae43341588d8cc95daeac662e0b35ab8a7a8222e81b9d9f8ae84f6d0eb4",
  "size": 661138,
  "subdir": "linux-64",
  "timestamp": 1701723974181,
  "url": "https://repo.anaconda.com/pkgs/main/linux-64/xz-5.4.5-h5eee18b_0.conda",
  "version": "5.4.5"
}